<?xml version="1.0" encoding="UTF-8" standalone="no"?>
<svg
   xmlns:dc="http://purl.org/dc/elements/1.1/"
   xmlns:cc="http://creativecommons.org/ns#"
   xmlns:rdf="http://www.w3.org/1999/02/22-rdf-syntax-ns#"
   xmlns:svg="http://www.w3.org/2000/svg"
   xmlns="http://www.w3.org/2000/svg"
   xmlns:sodipodi="http://sodipodi.sourceforge.net/DTD/sodipodi-0.dtd"
   xmlns:inkscape="http://www.inkscape.org/namespaces/inkscape"
   sodipodi:docname="shapes-f06.svg"
   inkscape:version="1.0beta1 (c8cd966, 2019-11-15)"
   sodipodi:version="0.32"
   id="svg3844"
   viewBox="0 0 300 135"
   height="135"
   width="300"
   inkscape:output_extension="org.inkscape.output.svg.inkscape"
   version="1.1">
  <defs
     id="defs3" />
  <sodipodi:namedview
     inkscape:window-maximized="1"
     inkscape:window-y="27"
     inkscape:window-x="54"
     inkscape:window-height="1016"
     inkscape:window-width="1866"
     inkscape:guide-bbox="true"
     showguides="true"
     units="px"
     showgrid="false"
     inkscape:document-rotation="0"
     inkscape:current-layer="layer1"
     inkscape:document-units="px"
     inkscape:cy="67.5"
     inkscape:cx="150"
     inkscape:zoom="1.4"
     inkscape:pageshadow="2"
     inkscape:pageopacity="0.0"
     borderopacity="1.0"
     bordercolor="#666666"
     pagecolor="#ffffff"
     id="base"
     inkscape:lockguides="true" />
  <metadata
     id="metadata4">
    <rdf:RDF>
      <cc:Work
         rdf:about="">
        <dc:format>image/svg+xml</dc:format>
        <dc:type
           rdf:resource="http://purl.org/dc/dcmitype/StillImage" />
        <dc:title />
      </cc:Work>
    </rdf:RDF>
  </metadata>
  <g
     id="layer1"
     inkscape:groupmode="layer"
     inkscape:label="Layer 1">
    <g

       transform="translate(0,-2169.487)"
       id="g6992">
      <path
         sodipodi:nodetypes="cc"
         id="path6370"
         d="m 200.86009,2297.1368 -80.73841,-126.799"
         style="fill:none;fill-opacity:0.75;fill-rule:evenodd;stroke:#cfcfcf;stroke-width:1.70282;stroke-linecap:butt;stroke-linejoin:miter;stroke-miterlimit:4;stroke-dasharray:1.70282, 1.70282;stroke-dashoffset:0;stroke-opacity:1"
         inkscape:connector-curvature="0" />
      <path
         id="path6369"
         d="m 148.58356,2287.8598 91.85084,-95.534"
         style="fill:none;fill-opacity:0.75;fill-rule:evenodd;stroke:#cfcfcf;stroke-width:1.70282;stroke-linecap:butt;stroke-linejoin:miter;stroke-miterlimit:4;stroke-dasharray:1.70282, 1.70282;stroke-dashoffset:0;stroke-opacity:1"
         inkscape:connector-curvature="0" />
      <path
         id="path6368"
         d="m 79.48278,2277.2299 91.85082,-95.534"
         style="fill:none;fill-opacity:0.75;fill-rule:evenodd;stroke:#cfcfcf;stroke-width:1.70282;stroke-linecap:butt;stroke-linejoin:miter;stroke-miterlimit:4;stroke-dasharray:1.70282, 1.70282;stroke-dashoffset:0;stroke-opacity:1"
         inkscape:connector-curvature="0" />
      <path
         id="path6367"
         d="m 54.316258,2219.6747 193.808122,62.1639"
         style="fill:none;fill-opacity:0.75;fill-rule:evenodd;stroke:#cfcfcf;stroke-width:1.70282;stroke-linecap:butt;stroke-linejoin:miter;stroke-miterlimit:4;stroke-dasharray:1.70282, 1.70282;stroke-dashoffset:0;stroke-opacity:1"
         inkscape:connector-curvature="0" />
      <path
         id="path5743"
         d="M 77.694574,2188.1381 271.50272,2250.302"
         style="fill:none;fill-opacity:0.75;fill-rule:evenodd;stroke:#cfcfcf;stroke-width:1.70282;stroke-linecap:butt;stroke-linejoin:miter;stroke-miterlimit:4;stroke-dasharray:1.70282, 1.70282;stroke-dashoffset:0;stroke-opacity:1"
         inkscape:connector-curvature="0" />
    </g>
    <rect
       transform="matrix(0.69601,-0.718032,-0.952721,-0.303847,0,0)"
       ry="3.835484"
       rx="5.8250465"
       y="-211.02315"
       x="-35.379341"
       height="64.103317"
       width="41.62513"
       id="rect5742"
       style="color:#000000;fill:#0000ff;fill-opacity:0.996656;fill-rule:evenodd;stroke:#000000;stroke-width:0.999997pt;stroke-linecap:butt;stroke-linejoin:miter;stroke-miterlimit:4;stroke-dashoffset:0;stroke-opacity:1;marker:none;marker-start:none;marker-mid:none;marker-end:none" />
    <text
       id="text95"
       y="126.24259"
       x="78.675034"
       style="font-style:normal;font-variant:normal;font-weight:normal;font-stretch:normal;font-size:6px;line-height:1.25;font-family:'Liberation Sans',Arial,sans-serif;-inkscape-font-specification:'sans-serif Normal';font-variant-ligatures:normal;font-variant-caps:normal;font-variant-numeric:normal;font-variant-east-asian:normal;fill:#000000;fill-opacity:1;stroke:none;stroke-width:1px;stroke-linecap:butt;stroke-linejoin:miter;stroke-opacity:1"
       xml:space="preserve"><tspan
         y="126.24259"
         x="78.675034"
         id="tspan99"
         sodipodi:role="line">Snapping of rectangle </tspan><tspan
         id="tspan97"
         y="133.7426"
         x="78.675034"
         sodipodi:role="line">- resize handles with Ctrl</tspan></text>
  </g>
</svg>
