<?xml version="1.0" encoding="UTF-8" standalone="no"?>
<svg
   xmlns:dc="http://purl.org/dc/elements/1.1/"
   xmlns:cc="http://creativecommons.org/ns#"
   xmlns:rdf="http://www.w3.org/1999/02/22-rdf-syntax-ns#"
   xmlns:svg="http://www.w3.org/2000/svg"
   xmlns="http://www.w3.org/2000/svg"
   xmlns:sodipodi="http://sodipodi.sourceforge.net/DTD/sodipodi-0.dtd"
   xmlns:inkscape="http://www.inkscape.org/namespaces/inkscape"
   version="1.1"
   inkscape:output_extension="org.inkscape.output.svg.inkscape"
   sodipodi:docname="interpolate-f05.svg"
   inkscape:version="1.0beta1 (08a003b, 2019-11-10)"
   sodipodi:version="0.32"
   viewBox="0 0 300 42"
   id="svg15699"
   height="42"
   width="300">
  <defs
     id="defs15701" />
  <sodipodi:namedview
     inkscape:lockguides="true"
     id="base"
     pagecolor="#ffffff"
     bordercolor="#666666"
     borderopacity="1.0"
     inkscape:pageopacity="0.0"
     inkscape:pageshadow="2"
     inkscape:zoom="1.4"
     inkscape:cx="324.77314"
     inkscape:cy="25.773577"
     inkscape:document-units="px"
     inkscape:current-layer="layer1"
     inkscape:document-rotation="0"
     showgrid="false"
     units="px"
     showguides="true"
     inkscape:guide-bbox="true"
     inkscape:window-width="1866"
     inkscape:window-height="1016"
     inkscape:window-x="54"
     inkscape:window-y="27"
     inkscape:window-maximized="1" />
  <metadata
     id="metadata15704">
    <rdf:RDF>
      <cc:Work
         rdf:about="">
        <dc:format>image/svg+xml</dc:format>
        <dc:type
           rdf:resource="http://purl.org/dc/dcmitype/StillImage" />
        <dc:title></dc:title>
      </cc:Work>
    </rdf:RDF>
  </metadata>
  <g
     id="layer1"
     inkscape:groupmode="layer"
     inkscape:label="Layer 1">
    <g
       transform="translate(10.094344,0.26877478)"
       id="g2898">
      <path
         inkscape:connector-curvature="0"
         style="fill:#00ccff;fill-opacity:1;stroke:#2e75ac;stroke-width:4.04816;stroke-linejoin:round;stroke-miterlimit:4;stroke-opacity:1"
         id="path4455"
         d="m 20.261606,2.0739219 c 10.119094,0 18.265504,8.1464001 18.265504,18.2655001 0,10.119097 -8.14641,18.265497 -18.265504,18.265497 -10.119084,0 -18.2655037,-8.1464 -18.2655037,-18.265497 0,-10.1191 8.1464197,-18.2655001 18.2655037,-18.2655001 z"
         inkscape:export-xdpi="88.379997"
         inkscape:export-filename="C:\Documents and Settings\ryan\Desktop\interpolate1.png"
         inkscape:export-ydpi="88.379997" />
      <path
         inkscape:connector-curvature="0"
         style="fill:#00ccff;fill-opacity:1;stroke:#2e75ac;stroke-width:4.04816;stroke-linejoin:round;stroke-miterlimit:4;stroke-opacity:1"
         id="path4457"
         sodipodi:nodetypes="cccc"
         inkscape:export-xdpi="88.379997"
         d="M 263.67742,9.3801219 245.41192,38.604919 227.14641,9.3801219 Z"
         inkscape:export-filename="C:\Documents and Settings\ryan\Desktop\interpolate1.png"
         inkscape:export-ydpi="88.379997" />
      <rect
         style="opacity:1;fill:#00ff00;fill-opacity:1;stroke:none;stroke-width:1.2;stroke-linejoin:round;stroke-miterlimit:4;stroke-dasharray:none;stroke-opacity:1"
         id="rect2473"
         width="2.9821236"
         transform="rotate(135.47779)"
         y="-16.96793"
         x="-14.604343"
         height="2.9821236" />
      <rect
         style="opacity:1;fill:#cccccc;fill-opacity:1;stroke:none;stroke-width:1.2;stroke-linejoin:round;stroke-miterlimit:4;stroke-dasharray:none;stroke-opacity:1"
         id="rect2475"
         width="2.9821236"
         transform="rotate(135.47779)"
         y="-43.997108"
         x="-14.270543"
         height="2.9821236" />
      <rect
         style="opacity:1;fill:#cccccc;fill-opacity:1;stroke:none;stroke-width:1.2;stroke-linejoin:round;stroke-miterlimit:4;stroke-dasharray:none;stroke-opacity:1"
         id="rect2477"
         width="2.9821236"
         transform="rotate(135.47779)"
         y="-43.647812"
         x="10.894861"
         height="2.9821236" />
      <rect
         style="opacity:1;fill:#cccccc;fill-opacity:1;stroke:none;stroke-width:1.2;stroke-linejoin:round;stroke-miterlimit:4;stroke-dasharray:none;stroke-opacity:1"
         id="rect2479"
         width="2.9821236"
         transform="rotate(135.47779)"
         y="-17.746189"
         x="11.670061"
         height="2.9821236" />
      <rect
         style="opacity:1;fill:#cccccc;fill-opacity:1;stroke:none;stroke-width:1.2;stroke-linejoin:round;stroke-miterlimit:4;stroke-dasharray:none;stroke-opacity:1"
         id="rect2481"
         width="2.9821236"
         transform="rotate(135.47779)"
         y="-168.79997"
         x="-157.71265"
         height="2.9821236" />
      <rect
         style="opacity:1;fill:#00ff00;fill-opacity:1;stroke:none;stroke-width:1.2;stroke-linejoin:round;stroke-miterlimit:4;stroke-dasharray:none;stroke-opacity:1"
         id="rect2483"
         width="2.9821236"
         transform="rotate(135.47779)"
         y="-192.64201"
         x="-181.95563"
         height="2.9821236" />
      <rect
         style="opacity:1;fill:#cccccc;fill-opacity:1;stroke:none;stroke-width:1.2;stroke-linejoin:round;stroke-miterlimit:4;stroke-dasharray:none;stroke-opacity:1"
         id="rect2485"
         width="2.9821236"
         transform="rotate(135.47779)"
         y="-200.54918"
         x="-150.14905"
         height="2.9821236" />
    </g>
  </g>
</svg>
