<?xml version="1.0" encoding="UTF-8" standalone="no"?>
<svg
   xmlns:dc="http://purl.org/dc/elements/1.1/"
   xmlns:cc="http://creativecommons.org/ns#"
   xmlns:rdf="http://www.w3.org/1999/02/22-rdf-syntax-ns#"
   xmlns:svg="http://www.w3.org/2000/svg"
   xmlns="http://www.w3.org/2000/svg"
   xmlns:xlink="http://www.w3.org/1999/xlink"
   xmlns:sodipodi="http://sodipodi.sourceforge.net/DTD/sodipodi-0.dtd"
   xmlns:inkscape="http://www.inkscape.org/namespaces/inkscape"
   sodipodi:docname="calligraphy-f07.svg"
   inkscape:version="1.0beta1 (a4ee55bc41, 2019-11-15)"
   sodipodi:version="0.32"
   id="svg2265"
   viewBox="0 0 300 256"
   height="256"
   width="300"
   version="1.1">
  <defs
     id="defs3" />
  <sodipodi:namedview
     inkscape:window-maximized="1"
     inkscape:window-y="27"
     inkscape:window-x="54"
     inkscape:window-height="1016"
     inkscape:window-width="1866"
     inkscape:guide-bbox="true"
     showguides="true"
     units="px"
     showgrid="false"
     inkscape:document-rotation="0"
     inkscape:current-layer="layer1"
     inkscape:document-units="px"
     inkscape:cy="143.70428"
     inkscape:cx="159.69704"
     inkscape:zoom="2.8284271"
     inkscape:pageshadow="2"
     inkscape:pageopacity="0.0"
     borderopacity="1.0"
     bordercolor="#666666"
     pagecolor="#ffffff"
     id="base"
     inkscape:lockguides="true" />
  <metadata
     id="metadata4">
    <rdf:RDF>
      <cc:Work
         rdf:about="">
        <dc:format>image/svg+xml</dc:format>
        <dc:type
           rdf:resource="http://purl.org/dc/dcmitype/StillImage" />
        <dc:title></dc:title>
      </cc:Work>
    </rdf:RDF>
  </metadata>
  <g
     id="layer1"
     inkscape:groupmode="layer"
     inkscape:label="Layer 1">
    <g
       id="g3123"
       transform="matrix(1.0125459,0,0,1.0125459,-1.0244734,29.76306)">
      <text
         id="text3115"
         y="12.058847"
         x="0.87408441"
         style="font-style:normal;font-weight:normal;line-height:0%;font-family:'Liberation Sans',Arial,sans-serif;display:block;fill:#000000;fill-opacity:1;stroke:none;stroke-width:1pt;stroke-linecap:butt;stroke-linejoin:miter;stroke-opacity:1"
         xml:space="preserve"><tspan
           y="12.058847"
           x="0.87408441"
           id="tspan3117"
           sodipodi:role="line"
           style="font-size:6px;line-height:1.1">slow</tspan></text>
      <text
         id="text3119"
         y="21.308847"
         x="0.87408441"
         style="font-style:normal;font-weight:normal;line-height:0%;font-family:'Liberation Sans',Arial,sans-serif;display:block;fill:#000000;fill-opacity:1;stroke:none;stroke-width:1pt;stroke-linecap:butt;stroke-linejoin:miter;stroke-opacity:1"
         xml:space="preserve"><tspan
           y="21.308847"
           x="0.87408441"
           id="tspan3121"
           sodipodi:role="line"
           style="font-size:6px;line-height:1.1">medium</tspan></text>
      <text
         xml:space="preserve"
         style="font-style:normal;font-weight:normal;line-height:0%;font-family:'Liberation Sans',Arial,sans-serif;display:block;fill:#000000;fill-opacity:1;stroke:none;stroke-width:1pt;stroke-linecap:butt;stroke-linejoin:miter;stroke-opacity:1"
         x="0.87408441"
         y="30.558847"
         id="text1987"><tspan
           sodipodi:role="line"
           id="tspan1988"
           x="0.87408441"
           y="30.558847"
           style="font-size:6px;line-height:1.1">fast</tspan></text>
    </g>
    <use
       x="0"
       y="0"
       xlink:href="#g3123"
       id="use3165"
       transform="translate(159.98225,188.33353)"
       width="744.09448"
       height="1052.3622" />
    <use
       x="0"
       y="0"
       xlink:href="#g3123"
       id="use3163"
       transform="translate(2.5872172e-8,188.33353)"
       width="744.09448"
       height="1052.3622" />
    <use
       x="0"
       y="0"
       xlink:href="#g3123"
       id="use3161"
       transform="translate(159.98225,141.25015)"
       width="744.09448"
       height="1052.3622" />
    <use
       x="0"
       y="0"
       xlink:href="#g3123"
       id="use3159"
       transform="translate(2.5872172e-8,141.25015)"
       width="744.09448"
       height="1052.3622" />
    <use
       x="0"
       y="0"
       xlink:href="#g3123"
       id="use3157"
       transform="translate(159.98225,94.166767)"
       width="744.09448"
       height="1052.3622" />
    <use
       x="0"
       y="0"
       xlink:href="#g3123"
       id="use3155"
       transform="translate(2.5872172e-8,94.166767)"
       width="744.09448"
       height="1052.3622" />
    <use
       x="0"
       y="0"
       xlink:href="#g3123"
       id="use3153"
       transform="translate(159.98225,47.083384)"
       width="744.09448"
       height="1052.3622" />
    <use
       x="0"
       y="0"
       xlink:href="#g3123"
       id="use3151"
       transform="translate(2.5872172e-8,47.083384)"
       width="744.09448"
       height="1052.3622" />
    <use
       x="0"
       y="0"
       xlink:href="#g3123"
       id="use3149"
       transform="translate(159.98225)"
       width="744.09448"
       height="1052.3622" />
    <text
       id="text3177"
       y="6"
       x="133.01036"
       style="font-style:normal;font-weight:normal;font-size:12.1506px;line-height:0%;font-family:'Liberation Sans',Arial,sans-serif;display:block;fill:#000000;fill-opacity:1;stroke:none;stroke-width:1.01255pt;stroke-linecap:butt;stroke-linejoin:miter;stroke-opacity:1"
       xml:space="preserve"><tspan
         y="6"
         x="133.01036"
         id="tspan3179"
         sodipodi:role="line"
         style="font-size:6px;line-height:1.1;stroke-width:1.01255pt">tremor = 0</tspan></text>
    <text
       xml:space="preserve"
       style="font-style:normal;font-weight:normal;font-size:12.1506px;line-height:0%;font-family:'Liberation Sans',Arial,sans-serif;display:block;fill:#000000;fill-opacity:1;stroke:none;stroke-width:1.01255pt;stroke-linecap:butt;stroke-linejoin:miter;stroke-opacity:1"
       x="62.132141"
       y="34.885372"
       id="text3111"><tspan
         sodipodi:role="line"
         id="tspan3113"
         x="62.132141"
         y="34.885372"
         style="font-size:6px;line-height:1.1;stroke-width:1.01255pt">tremor = 10</tspan></text>
    <text
       id="text1990"
       y="80.41172"
       x="62.09507"
       style="font-style:normal;font-weight:normal;font-size:12.1506px;line-height:0%;font-family:'Liberation Sans',Arial,sans-serif;display:block;fill:#000000;fill-opacity:1;stroke:none;stroke-width:1.01255pt;stroke-linecap:butt;stroke-linejoin:miter;stroke-opacity:1"
       xml:space="preserve"><tspan
         y="80.41172"
         x="62.09507"
         id="tspan1991"
         sodipodi:role="line"
         style="font-size:6px;line-height:1.1;stroke-width:1.01255pt">tremor = 30</tspan></text>
    <text
       xml:space="preserve"
       style="font-style:normal;font-weight:normal;font-size:12.1506px;line-height:0%;font-family:'Liberation Sans',Arial,sans-serif;display:block;fill:#000000;fill-opacity:1;stroke:none;stroke-width:1.01255pt;stroke-linecap:butt;stroke-linejoin:miter;stroke-opacity:1"
       x="62.117317"
       y="126.44436"
       id="text2991"><tspan
         sodipodi:role="line"
         id="tspan2993"
         x="62.117317"
         y="126.44436"
         style="font-size:6px;line-height:1.1;stroke-width:1.01255pt">tremor = 50</tspan></text>
    <text
       xml:space="preserve"
       style="font-style:normal;font-weight:normal;font-size:12.1506px;line-height:0%;font-family:'Liberation Sans',Arial,sans-serif;display:block;fill:#000000;fill-opacity:1;stroke:none;stroke-width:1.01255pt;stroke-linecap:butt;stroke-linejoin:miter;stroke-opacity:1"
       x="62.111385"
       y="172.47697"
       id="text2995"><tspan
         sodipodi:role="line"
         id="tspan2997"
         x="62.111385"
         y="172.47697"
         style="font-size:6px;line-height:1.1;stroke-width:1.01255pt">tremor = 70</tspan></text>
    <text
       id="text1993"
       y="218.50958"
       x="62.065403"
       style="font-style:normal;font-weight:normal;font-size:12.1506px;line-height:0%;font-family:'Liberation Sans',Arial,sans-serif;display:block;fill:#000000;fill-opacity:1;stroke:none;stroke-width:1.01255pt;stroke-linecap:butt;stroke-linejoin:miter;stroke-opacity:1"
       xml:space="preserve"><tspan
         y="218.50958"
         x="62.065403"
         id="tspan1994"
         sodipodi:role="line"
         style="font-size:6px;line-height:1.1;stroke-width:1.01255pt">tremor = 90</tspan></text>
    <text
       id="text1996"
       y="34.379101"
       x="214.17041"
       style="font-style:normal;font-weight:normal;font-size:12.1506px;line-height:0%;font-family:'Liberation Sans',Arial,sans-serif;display:block;fill:#000000;fill-opacity:1;stroke:none;stroke-width:1.01255pt;stroke-linecap:butt;stroke-linejoin:miter;stroke-opacity:1"
       xml:space="preserve"><tspan
         y="34.379101"
         x="214.17041"
         id="tspan1997"
         sodipodi:role="line"
         style="font-size:6px;line-height:1.1;stroke-width:1.01255pt">tremor = 20</tspan></text>
    <text
       xml:space="preserve"
       style="font-style:normal;font-weight:normal;font-size:12.1506px;line-height:0%;font-family:'Liberation Sans',Arial,sans-serif;display:block;fill:#000000;fill-opacity:1;stroke:none;stroke-width:1.01255pt;stroke-linecap:butt;stroke-linejoin:miter;stroke-opacity:1"
       x="214.03691"
       y="80.41172"
       id="text2999"><tspan
         sodipodi:role="line"
         id="tspan3001"
         x="214.03691"
         y="80.41172"
         style="font-size:6px;line-height:1.1;stroke-width:1.01255pt">tremor = 40</tspan></text>
    <text
       xml:space="preserve"
       style="font-style:normal;font-weight:normal;font-size:12.1506px;line-height:0%;font-family:'Liberation Sans',Arial,sans-serif;display:block;fill:#000000;fill-opacity:1;stroke:none;stroke-width:1.01255pt;stroke-linecap:butt;stroke-linejoin:miter;stroke-opacity:1"
       x="214.05768"
       y="126.44436"
       id="text3003"><tspan
         sodipodi:role="line"
         id="tspan3005"
         x="214.05768"
         y="126.44436"
         style="font-size:6px;line-height:1.1;stroke-width:1.01255pt">tremor = 60</tspan></text>
    <text
       xml:space="preserve"
       style="font-style:normal;font-weight:normal;font-size:12.1506px;line-height:0%;font-family:'Liberation Sans',Arial,sans-serif;display:block;fill:#000000;fill-opacity:1;stroke:none;stroke-width:1.01255pt;stroke-linecap:butt;stroke-linejoin:miter;stroke-opacity:1"
       x="214.07399"
       y="172.47697"
       id="text3007"><tspan
         sodipodi:role="line"
         id="tspan3009"
         x="214.07399"
         y="172.47697"
         style="font-size:6px;line-height:1.1;stroke-width:1.01255pt">tremor = 80</tspan></text>
    <text
       id="text1999"
       y="218.50958"
       x="214.06805"
       style="font-style:normal;font-weight:normal;font-size:12.1506px;line-height:0%;font-family:'Liberation Sans',Arial,sans-serif;display:block;fill:#000000;fill-opacity:1;stroke:none;stroke-width:1.01255pt;stroke-linecap:butt;stroke-linejoin:miter;stroke-opacity:1"
       xml:space="preserve"><tspan
         y="218.50958"
         x="214.06805"
         id="tspan2000"
         sodipodi:role="line"
         style="font-size:6px;line-height:1.1;stroke-width:1.01255pt">tremor = 100</tspan></text>
    <path
       style="color:#000000;display:inline;overflow:visible;visibility:visible;opacity:1;fill:#000000;fill-opacity:1;fill-rule:nonzero;stroke:none;stroke-width:0.00101255;stroke-linecap:butt;stroke-linejoin:miter;stroke-miterlimit:4;stroke-dasharray:none;stroke-dashoffset:0;stroke-opacity:1;marker:none;marker-start:none;marker-mid:none;marker-end:none"
       id="path2977"
       d="m 196.22178,36.798297 c 1.29978,-0.608809 0.52474,0.12111 1.46356,0.33779 2.55825,-1.567956 1.83788,0.0535 4.32301,-0.645138 1.30276,-0.357297 2.34781,-0.03798 3.09523,0.504483 1.82323,-0.458932 2.89777,-0.12874 5.87639,1.111208 2.21315,-0.643421 4.21085,-0.296874 6.59434,-0.506787 0.47856,0.621873 2.75954,0.505298 3.72888,0.572078 2.17112,-0.492408 4.31685,-0.796404 6.47437,-0.958692 0.0912,0.915969 2.68643,0.433607 3.20074,0.375504 0.98458,-0.200757 2.01663,0.121128 2.99321,0.357753 3.26454,-0.927215 1.3813,0.386155 4.42236,-0.745638 -1.4155,1.433651 2.11405,0.500701 2.82124,0.47767 1.8165,-0.524788 2.41632,-0.59426 3.68867,-0.104319 2.00137,-0.24886 3.58658,0.198057 5.07016,0.856313 2.34024,-0.863747 4.57694,-1.056513 6.98286,-1.097416 3.01507,0.263919 4.13426,0.378108 7.51496,-0.326429 2.99515,-1.048913 2.56583,0.420048 5.50054,-0.685671 0.55147,1.011242 3.42903,0.21176 4.89234,-0.37031 0.60427,0.229365 1.94248,0.856283 2.31424,0.962733 2.11075,-0.124882 2.11823,-0.08789 4.72551,-0.861454 -0.42491,0.440857 -1.06523,0.747234 -1.27473,1.322574 -0.44908,1.233333 2.58182,-0.481274 3.88294,-0.654102 3.76336,-1.480698 2.10405,0.498836 4.0693,-0.402941 1.04007,0.613525 2.51488,0.24679 3.83826,0.0323 l -6.84599,4.973909 c -0.98708,0.179779 -2.70774,0.643983 -3.45451,-0.311113 -1.5141,0.137164 -1.44309,-0.778725 -3.79971,0.207082 -0.39544,-0.0025 -2.50485,0.181634 -2.3385,-0.864486 -1.99237,0.972122 -2.79722,-0.06012 -4.98028,1.045659 -0.92373,-0.206537 -1.82361,-0.571904 -2.76818,-0.632943 -1.55028,0.204231 -3.27758,0.503259 -4.76873,0.323322 -1.40564,0.243777 -2.85881,-0.301088 -4.52837,0.06122 -2.99029,1.384151 -5.45144,0.150133 -8.72598,1.082548 -1.88009,-0.308173 -3.66225,-0.402021 -5.52059,0.03501 -2.72453,-0.378851 -3.63372,-0.579741 -5.97711,-0.197364 -1.07213,0.198482 -4.44558,1.049501 -2.49763,-0.761027 -2.08896,0.617947 -2.66865,-0.03933 -5.22338,1.267586 -0.3898,-0.160137 -1.17326,-1.157798 -2.86566,-0.385377 -0.74583,-0.222613 -2.2787,-0.120287 -2.994,-0.357182 -1.30588,0.118787 -2.97098,0.684548 -4.17577,0.333053 -0.78999,0.140557 -3.36289,0.01264 -5.11781,-0.0263 -1.4061,-0.305421 -2.95171,-0.126695 -4.80868,0.207872 -1.80523,-0.35484 -4.38251,0.56172 -5.37495,-0.416216 -2.61317,-0.159988 -4.4917,-1.328947 -7.08666,-0.343256 -0.91127,-0.304012 -1.87421,-0.64206 -2.82993,-0.544997 -0.57588,0.11032 -3.59178,0.503516 -2.58439,-0.618054 -3.10518,0.940769 -0.73414,-0.191892 -3.14393,0.883082 z"
       inkscape:connector-curvature="0" />
    <path
       style="color:#000000;display:inline;overflow:visible;visibility:visible;opacity:1;fill:#000000;fill-opacity:1;fill-rule:nonzero;stroke:none;stroke-width:0.00101255;stroke-linecap:butt;stroke-linejoin:miter;stroke-miterlimit:4;stroke-dasharray:none;stroke-dashoffset:0;stroke-opacity:1;marker:none;marker-start:none;marker-mid:none;marker-end:none"
       id="path2979"
       d="m 192.81873,45.745679 c 0.85532,-0.479954 1.36909,-0.520122 3.27478,-0.722103 2.50974,0.163537 6.75834,0.518485 10.19463,1.764933 12.96267,-0.788265 26.10277,1.552832 38.69123,-0.16904 10.2475,1.130303 20.31048,1.426792 30.83693,0.482258 3.02921,-0.58573 5.69648,0.08264 8.63867,-0.265106 1.83193,-0.614786 4.03092,0.531716 4.7877,0.784273 0.58644,-0.187458 1.17288,-0.374918 1.75933,-0.562378 l -6.06574,4.407186 c -0.20915,-0.08665 -0.41831,-0.173298 -0.62746,-0.259948 -1.96,0.04061 -4.02671,-0.147242 -5.85266,-0.0099 -2.63438,0.169164 -5.37204,-0.09574 -8.12457,-0.113157 -10.24814,-1.268165 -20.31348,0.852589 -30.64454,-0.629955 -12.75228,0.750462 -25.123,-0.507465 -37.80368,-0.490605 -4.06991,-0.447336 -8.62345,0.439335 -11.95286,-0.46085 -1.26794,-0.142346 -1.68849,-0.242975 -3.11181,0.603701 z"
       inkscape:connector-curvature="0" />
    <path
       style="color:#000000;display:inline;overflow:visible;visibility:visible;opacity:1;fill:#000000;fill-opacity:1;fill-rule:nonzero;stroke:none;stroke-width:0.00101255;stroke-linecap:butt;stroke-linejoin:miter;stroke-miterlimit:4;stroke-dasharray:none;stroke-dashoffset:0;stroke-opacity:1;marker:none;marker-start:none;marker-mid:none;marker-end:none"
       id="path2981"
       d="m 193.94487,54.143204 c -1.34767,0.631511 3.96889,0.882262 4.92219,0.870167 10.72088,0.596353 20.89434,1.985616 31.46066,1.768007 10.68682,0.424704 21.85545,-1.89926 32.41944,-0.453762 5.68731,-0.577219 11.41707,0.470685 16.90331,0.447334 2.29006,-0.499686 3.25082,0.599767 5.9513,-0.233622 1.8729,0.112608 3.753,0.06593 5.62714,0.09942 l -5.45942,3.966956 c -2.87241,0.513276 -4.55772,0.40175 -6.78538,0.738149 -1.48266,0.0356 -3.07473,-0.187765 -4.34647,-0.950805 -5.68813,-0.08735 -11.37294,1.011572 -17.0067,-0.350782 -10.90099,0.839956 -21.29926,-0.624054 -32.30076,0.356783 -10.6306,-0.127289 -21.11731,-1.115255 -31.54139,-1.764402 -0.90232,0.108122 -7.12996,1.800637 -5.91965,-0.07917 z"
       inkscape:connector-curvature="0" />
    <path
       style="color:#000000;display:inline;overflow:visible;visibility:visible;opacity:1;fill:#000000;fill-opacity:1;fill-rule:nonzero;stroke:none;stroke-width:0.00101255;stroke-linecap:butt;stroke-linejoin:miter;stroke-miterlimit:4;stroke-dasharray:none;stroke-dashoffset:0;stroke-opacity:1;marker:none;marker-start:none;marker-mid:none;marker-end:none"
       id="path2985"
       d="m 34.495357,38.271191 c 0.897697,-0.36226 1.941456,-0.173378 2.788398,-0.279838 2.639962,0.258766 5.0049,0.270641 7.667191,0.416931 3.266094,0.231705 6.435725,0.233866 9.709299,0.270171 2.065619,0.758531 4.241578,0.526677 6.484884,0.489056 2.514551,0.06132 5.084864,0.02821 7.57788,-0.05473 1.801317,0.140389 3.569121,0.187618 5.36097,0.05054 1.730819,-0.298271 3.348243,0.134155 5.034076,0.33384 1.509505,-0.438928 2.851527,0.163451 4.227281,0.335293 1.249273,-0.46985 2.57414,-0.183295 3.803972,-0.137077 1.750046,-0.385549 1.743686,0.336584 3.637597,-0.08939 1.285968,-0.02553 2.488113,0.199615 3.945582,0.0087 1.549792,-0.272978 2.82642,0.136328 4.381549,-0.09549 1.183454,0.102145 1.932444,0.420869 3.008144,0.58392 1.64352,-0.550831 1.73859,0.251012 3.12589,0.4973 1.31341,0.09019 2.66656,-0.09647 3.97028,-0.135775 1.07455,0.248169 1.87674,0.252654 3.06494,0.312194 1.48406,-0.0047 2.80229,-0.198378 4.22697,-0.117344 1.26481,0.154867 2.24178,0.201494 3.47575,0.03254 1.4511,-0.08427 2.80132,-0.01069 4.29381,-0.112218 1.12974,0.08756 2.82284,0.127562 3.93031,0.211117 1.45938,-0.0057 2.91678,-0.139631 4.3468,-0.223551 0.33363,0.313402 2.49668,0.06099 3.53561,-0.05698 1.07011,0.289352 2.25186,0.182914 3.37672,0.07061 0.81027,0.301208 1.11424,0.02752 1.97803,0.04885 l -5.89198,4.280772 c -0.99816,0.09167 -1.14474,0.546582 -1.86462,-0.131238 -1.67609,0.457805 -2.20507,-0.04772 -3.99536,0.378844 -0.87675,-0.09012 -2.18582,-0.06344 -3.07568,-0.277176 -1.56759,0.3447 -2.7528,0.325089 -4.31001,0.196821 -1.44532,0.06248 -2.74452,-0.256127 -4.22158,4.99e-4 -1.51282,0.124948 -2.84609,-0.255562 -4.28547,0.106173 -1.01703,-0.03162 -2.26249,-0.35262 -3.41685,-0.07497 -1.05293,-0.0096 -2.52244,-0.137973 -3.7725,-0.212662 -1.28705,0.04869 -2.50661,0.198024 -3.77454,0.17778 -1.12566,-0.189378 -2.12322,-0.102418 -3.143554,-0.566636 -1.442726,0.08324 -2.371585,-0.124703 -3.703751,-0.03999 -1.726036,-0.08493 -1.954932,-0.621127 -3.058202,-0.458252 -1.186978,-0.05367 -2.859642,-0.170483 -4.219325,-0.02237 -1.316341,0.03952 -2.523795,0.0072 -3.967042,0.0072 -1.233366,0.151819 -2.253265,0.104222 -3.500827,-0.0094 -1.155923,-0.07807 -2.2929,0.187462 -3.469496,-0.118908 -1.85118,0.27578 -2.831286,-0.02418 -4.690676,-0.07415 -1.613326,-0.07132 -3.164549,-0.392781 -4.783464,-0.428117 -1.987168,0.188862 -3.86424,0.337615 -5.834242,0.293786 -2.325152,-0.165814 -4.621267,-0.251595 -6.946177,-0.412037 -2.298493,0.473881 -4.704473,-0.04671 -7.036991,-0.149762 -2.972227,0.0311 -6.094472,-0.298267 -9.073814,-0.707394 -2.787874,-0.207896 -5.661652,0.464808 -8.2358,0.04065 -0.997665,0.19209 -1.981005,0.27808 -2.44022,0.02687 z"
       inkscape:connector-curvature="0" />
    <path
       style="color:#000000;display:inline;overflow:visible;visibility:visible;opacity:1;fill:#000000;fill-opacity:1;fill-rule:nonzero;stroke:none;stroke-width:0.00101255;stroke-linecap:butt;stroke-linejoin:miter;stroke-miterlimit:4;stroke-dasharray:none;stroke-dashoffset:0;stroke-opacity:1;marker:none;marker-start:none;marker-mid:none;marker-end:none"
       id="path2987"
       d="m 32.922612,48.155862 c 0.838681,0.290813 1.952542,-0.109284 2.950424,-0.106591 3.702061,0.01379 7.401193,0.822956 11.136058,0.762673 4.983161,0.701629 9.997954,-0.27943 14.986575,0.05834 4.300154,0.475911 8.371045,0.493434 12.732073,0.148253 4.888765,1.007869 9.923622,0.01756 14.97844,0.59843 4.942921,0.473026 9.691974,-1.734786 14.596488,-0.871086 3.98301,-0.911102 8.09888,-0.02017 12.01952,-0.613681 4.08247,0.716926 8.20928,0.554183 12.30936,1.22324 2.80035,-0.06465 5.41123,0.296844 8.15477,-0.162579 1.13637,-0.04977 2.95157,0.452582 3.58451,0.476265 1.42688,-0.834959 2.38615,-0.245665 3.19617,-0.185453 l -5.54584,4.029786 c -1.13617,0.126812 -2.31576,0.449921 -3.44821,0.369573 -1.28177,0.01126 -2.63727,-0.100586 -4.07424,-0.13474 -2.33165,-0.230431 -4.96168,-0.03311 -7.46479,-0.37149 -4.21315,-0.714152 -8.40479,-0.373695 -12.63983,-0.965994 -3.82033,0.562839 -7.5547,0.121839 -11.354436,0.194336 -5.009824,0.875216 -10.272034,0.548064 -15.327581,1.364862 -4.937112,-0.964772 -9.889207,-0.184805 -14.831957,-0.727997 -4.268143,0.551102 -8.565358,-0.128022 -12.87567,-0.02516 -4.824237,0.179969 -9.722868,-0.540432 -14.609301,-0.355275 -3.759504,-0.577595 -8.003914,0.356977 -11.438936,-0.513474 -1.000563,0.124979 -2.367249,0.430363 -3.274396,0.34197 z"
       inkscape:connector-curvature="0" />
    <path
       style="color:#000000;display:inline;overflow:visible;visibility:visible;opacity:1;fill:#000000;fill-opacity:1;fill-rule:nonzero;stroke:none;stroke-width:0.00101255;stroke-linecap:butt;stroke-linejoin:miter;stroke-miterlimit:4;stroke-dasharray:none;stroke-dashoffset:0;stroke-opacity:1;marker:none;marker-start:none;marker-mid:none;marker-end:none"
       id="path2989"
       d="m 25.732851,62.172006 c 1.785369,-1.905322 5.935972,-5.124471 9.373148,-4.37587 7.343586,0.632926 14.779245,0.201912 22.186922,0.03612 14.795501,0.203518 29.694715,-1.629449 44.432289,-0.141951 11.90255,-0.220254 23.90204,0.38463 35.75415,1.268392 4.30768,-0.172981 2.33037,-0.161958 5.93126,-0.09543 l -6.19055,4.460704 c -3.02544,-0.578859 -1.30662,-0.362253 -5.17728,-0.455229 -11.44027,-0.732686 -22.87318,-1.513492 -34.319749,-2.28348 -15.041825,-0.389122 -30.070539,0.09661 -45.096853,0.664899 -7.855765,-0.0087 -15.686649,1.107763 -23.529459,0.899747 z"
       sodipodi:nodetypes="cccccccccccc"
       inkscape:connector-curvature="0" />
    <path
       style="color:#000000;display:inline;overflow:visible;visibility:visible;opacity:1;fill:#000000;fill-opacity:1;fill-rule:nonzero;stroke:none;stroke-width:0.00101255;stroke-linecap:butt;stroke-linejoin:miter;stroke-miterlimit:4;stroke-dasharray:none;stroke-dashoffset:0;stroke-opacity:1;marker:none;marker-start:none;marker-mid:none;marker-end:none"
       id="path3011"
       d="m 32.855931,83.848424 c -1.326096,2.515248 5.680891,-3.857692 2.342226,-0.256159 -1.30688,1.684115 3.95586,-0.483749 4.289752,-0.639883 -0.29669,1.612067 4.142711,0.46041 5.768103,0.895948 1.606985,0.370389 4.560574,0.548883 6.406483,0.05453 0.671266,0.7627 3.306905,0.488286 4.638034,0.299853 3.058733,-0.577062 1.536279,1.07142 4.54268,0.569309 1.746794,-0.579507 2.863815,0.07903 3.46761,0.1621 6.085505,-2.483146 -2.523816,1.722489 3.34194,0.121555 1.709963,-0.861715 3.050692,-0.436438 4.643661,-0.81233 -0.724335,1.638425 3.01043,0.02915 4.579352,-0.275418 -0.274929,1.021845 2.045,0.816884 3.096611,0.699131 6.742533,-2.730335 -1.236396,0.451987 2.90293,0.478198 1.812906,-1.058265 2.712921,-0.355777 4.416663,-0.649212 -1.806961,1.716793 3.020049,0.211202 4.244845,0.157898 1.111583,0.07348 2.214347,0.393738 3.326223,0.324776 4.436683,-1.546647 1.497637,1.801341 5.970886,-0.218957 1.86117,-0.0808 2.18939,0.458574 4.03168,0.507836 6.34103,-1.949452 0.38821,2.186662 5.34587,-0.46197 0.67925,0.08682 1.06682,0.931003 2.48783,0.959447 2.81329,-1.317751 2.40184,-0.332847 3.73331,-0.241468 3.41786,-1.481089 -0.0632,-0.07661 3.11554,0.260413 2.55065,-0.211513 0.27402,-0.958038 4.79388,-0.639313 3.5838,-0.840121 0.63807,0.988665 6.01248,-0.603684 1.03589,-0.08149 2.3775,1.004515 3.26645,1.555354 5.29162,-2.587351 1.75987,0.422628 6.38342,-1.572048 0.1924,1.737467 -0.10468,1.216847 2.78875,0.558648 l -5.29731,3.84872 c -0.97804,0.504741 -5.2706,1.29299 -3.93349,0.273052 -1.66544,0.382509 -2.79007,0.586456 -3.82709,-0.285226 -3.47741,1.760522 -2.95435,-0.73341 -6.88375,1.072757 -1.4221,-0.116539 -2.80573,-0.53644 -4.22365,-0.695972 -4.42912,1.733024 -2.11843,-0.543431 -3.83811,-0.05509 -1.30173,0.267595 -2.44075,-0.251647 -3.9781,0.366271 -0.85833,0.26186 -3.12147,0.196239 -2.6339,-0.557146 -3.70759,1.445796 -2.07638,0.03987 -5.10928,0.945884 1.75045,-2.118286 -2.74965,0.720242 -4.126668,-0.433435 -0.622159,-0.06914 -3.515549,0.364689 -4.249453,-0.400473 -1.851197,0.32936 -7.011411,2.124061 -4.786269,-0.582144 -3.740137,1.671173 -0.444434,-0.70814 -4.416969,0.467697 -0.665421,0.09522 -3.990016,0.566554 -4.271813,-0.138302 -2.338116,0.479098 -2.594598,0.0097 -3.827918,0.221464 -1.152749,0.112402 -4.226516,0.817269 -3.474072,-0.06323 -1.449968,0.04649 -2.174616,-0.03546 -4.279817,0.160515 -1.002701,-0.01291 -2.128021,-0.850389 -4.393017,0.140047 -1.039034,0.207406 -2.110259,-0.197687 -3.167985,-0.259528 -1.408445,-0.05148 -2.373433,0.241398 -3.82238,0.228185 -3.945038,1.340458 1.456434,-2.119291 -3.937136,0.165202 -0.669548,-0.116562 -3.327153,-0.232443 -3.099347,-1.675736 -2.477066,0.82949 -4.243435,0.03414 -5.731077,0.545523 -2.377538,-0.107146 -3.583222,0.595624 -6.046984,-0.350198 -1.953441,0.307879 -6.058435,0.517336 -6.714001,-0.154825 -0.417146,0.104029 -2.321748,0.426723 -3.390336,-0.01358 -4.010021,0.895092 3.538311,-2.818423 -2.93174,0.684467 z"
       inkscape:connector-curvature="0" />
    <path
       style="color:#000000;display:inline;overflow:visible;visibility:visible;opacity:1;fill:#000000;fill-opacity:1;fill-rule:nonzero;stroke:none;stroke-width:0.00101255;stroke-linecap:butt;stroke-linejoin:miter;stroke-miterlimit:4;stroke-dasharray:none;stroke-dashoffset:0;stroke-opacity:1;marker:none;marker-start:none;marker-mid:none;marker-end:none"
       id="path3021"
       d="m 32.853239,94.590052 c 2.97032,-1.841411 1.7938,-0.706074 6.021386,0.08386 8.630888,-0.150977 17.378092,0.37002 26.310174,-0.577937 4.630603,1.546064 9.27233,0.563722 13.97152,0.538545 3.207257,-0.09706 6.153209,0.140773 9.165241,0.04877 3.319401,0.441062 6.699381,-0.849221 9.847072,-0.246706 3.239148,0.646244 5.257868,0.305499 8.581758,-0.0849 2.62216,0.583103 5.4641,0.374845 7.93256,-0.45664 3.47494,1.815723 8.52764,-0.09582 12.67775,1.034373 3.44885,-1.355818 6.96308,-0.905454 10.54697,-0.537288 1.36705,0.374892 1.32148,-0.229127 2.71573,0.04909 l -5.5074,4.001366 c -3.11553,1.419768 -0.35768,-0.201643 -3.01142,0.165729 -3.15665,-0.711416 -6.6359,1.243229 -9.66096,-0.106427 -4.98959,0.277323 -9.71509,-0.34287 -14.67433,0.41623 -0.92395,-0.275482 -4.26302,-0.235103 -6.25254,-0.763966 -2.595543,0.129517 -7.419342,1.521232 -8.236183,-0.166179 -3.219864,0.916733 -6.980571,0.868468 -10.278556,0.560201 -2.925771,0.375108 -6.34787,0.35217 -9.614751,0.277814 -5.942478,1.297043 -7.801965,-2.593595 -14.720412,0.0056 -8.534368,-1.878347 -17.124849,-1.226489 -25.625807,0.08072 -1.754702,-0.636609 -7.164117,0.674526 -5.355171,-0.567894 z"
       inkscape:connector-curvature="0" />
    <path
       style="color:#000000;display:inline;overflow:visible;visibility:visible;opacity:1;fill:#000000;fill-opacity:1;fill-rule:nonzero;stroke:none;stroke-width:0.00101255;stroke-linecap:butt;stroke-linejoin:miter;stroke-miterlimit:4;stroke-dasharray:none;stroke-dashoffset:0;stroke-opacity:1;marker:none;marker-start:none;marker-mid:none;marker-end:none"
       id="path3023"
       d="m 32.153218,105.6066 c 1.057144,0.2907 5.210484,0.46084 7.845592,0.26802 16.308512,2.03233 32.889147,0.0691 49.286514,1.06155 16.286616,0.14022 31.801146,0.36527 47.648906,-1.65779 2.81302,1.8427 5.88398,0.0996 8.7822,-0.72751 l -7.58215,5.56481 c -2.67642,-0.18347 -5.25147,0.47235 -7.94,0.098 -14.96405,-2.52943 -30.453802,0.79861 -45.569594,0.10749 -16.965351,-0.13044 -33.66259,-1.303 -50.538686,-0.1712 -4.724563,-0.96574 -8.192164,-0.33902 -7.483534,-0.51053 z"
       inkscape:connector-curvature="0" />
    <path
       style="color:#000000;display:inline;overflow:visible;visibility:visible;opacity:1;fill:#000000;fill-opacity:1;fill-rule:nonzero;stroke:none;stroke-width:0.00101255;stroke-linecap:butt;stroke-linejoin:miter;stroke-miterlimit:4;stroke-dasharray:none;stroke-dashoffset:0;stroke-opacity:1;marker:none;marker-start:none;marker-mid:none;marker-end:none"
       id="path3025"
       d="m 196.63446,83.12365 c -3.39057,3.490125 -1.05822,1.449048 2.06989,0.08813 -1.57902,1.760211 -1.29007,2.212695 0.92852,1.625866 2.42629,-0.455363 4.82722,-2.590613 4.20504,0.91945 2.00699,-1.336479 4.80173,-0.510377 5.59147,-0.398776 2.14304,0.77991 9.14334,-3.448152 7.3962,-0.677978 2.43702,-0.620778 4.12419,-0.644379 5.64336,-0.549683 -0.4399,4.132833 4.88747,-3.061985 1.93774,1.819816 4.05502,-0.996857 7.92959,-3.708665 3.15738,0.584036 2.86799,-2.237278 5.42084,-1.489584 7.50854,-1.008667 0.35686,1.195236 5.37374,0.200984 5.758,0.180935 3.51278,-0.980001 0.65614,0.762079 3.16871,0.524766 1.28904,-0.606773 4.65954,-1.23985 4.27213,0.131183 2.37101,-0.417075 5.17711,-0.529685 7.58551,-0.351709 1.18252,0.491556 5.76797,-1.459114 4.45735,0.124987 2.32821,-1.027564 1.65324,-0.08756 3.44974,0.04694 2.10067,0.272521 6.3658,-3.474368 3.65001,-0.335984 1.66592,-0.934208 3.78882,-1.027521 5.28992,-1.741093 -0.75671,0.350399 1.35822,1.126133 2.18749,1.213764 -0.32692,1.362168 3.34641,-0.62905 4.93031,-1.409349 -0.48294,0.436677 -2.09715,1.37004 -1.44883,1.310031 4.39263,-0.406589 1.5016,-0.577124 3.80044,-1.220348 2.10667,-0.763362 3.00756,0.184433 4.54131,-0.332487 1.43655,-1.031503 2.59039,0.469644 3.52629,0.607266 4.00787,-2.134232 1.53548,-0.275154 4.43972,-1.055358 l -7.00068,5.086119 c -0.61696,0.190402 -2.04421,-0.398515 -1.69335,-0.940545 -2.91027,1.600376 -2.75063,0.721888 -4.57176,0.153506 -1.86421,0.303141 -4.95,0.702456 -6.97543,2.188578 3.06628,-3.387109 -1.86525,-0.332354 -2.69119,0.498914 4.18026,-4.656502 -1.60727,2.110366 -1.06368,-1.827587 -2.30757,1.03963 -3.56187,0.548952 -5.6248,1.397821 2.64497,-2.793941 -2.20314,0.636126 -3.39301,0.427022 -0.0684,-0.01381 -1.14037,-1.983019 -3.95318,0.375622 -1.43196,0.0041 -0.79756,-1.910649 -3.92781,0.300381 -0.61997,-1.149667 -0.86598,-1.11682 -2.30741,-1.687006 -3.48955,1.641482 -5.00544,-0.129511 -8.98711,1.370195 -1.93871,-1.347421 -3.86014,0.413202 -4.67704,0.163754 -5.26064,1.136975 1.21038,-2.311492 -3.62756,-0.205379 -1.86516,0.06311 -4.02877,0.653926 -4.2726,-1.300468 -2.67851,0.813573 -4.27135,1.348541 -6.70889,0.464212 -0.79002,0.375211 -3.03306,-0.65212 -4.15449,0.04123 -1.57755,-0.433399 -3.34563,-0.104875 -4.88826,0.439903 3.08229,-3.790095 -1.94096,1.073386 -2.27305,-1.898932 -5.73712,2.656564 -3.22656,-0.494038 -8.62477,1.571353 -1.85311,-0.364153 -1.3368,-2.403308 -4.57796,-0.340189 -0.67517,-0.0088 -3.59304,0.244208 -4.15026,-1.042373 -3.33594,1.655282 -0.94769,-1.037009 -3.74649,0.364889 -0.42929,-6.7e-5 -0.66686,-1.39944 -0.26042,-1.261261 z"
       inkscape:connector-curvature="0" />
    <path
       style="color:#000000;display:inline;overflow:visible;visibility:visible;opacity:1;fill:#000000;fill-opacity:1;fill-rule:nonzero;stroke:none;stroke-width:0.00101255;stroke-linecap:butt;stroke-linejoin:miter;stroke-miterlimit:4;stroke-dasharray:none;stroke-dashoffset:0;stroke-opacity:1;marker:none;marker-start:none;marker-mid:none;marker-end:none"
       id="path3033"
       d="m 197.67862,102.43495 c 2.8889,-1.3046 7.07875,-0.49715 10.35483,1.15264 14.64753,-1.36361 29.1395,1.12793 43.99091,0.58889 8.39258,3.31866 17.19617,-1.60703 25.33025,-1.2807 1.30094,0.0523 1.81724,2.42471 3.11029,2.59011 3.8052,0.48674 7.59181,-1.31268 11.42201,-1.39868 1.18432,-0.0578 2.36866,-0.11566 3.553,-0.17349 l -5.28915,4.21143 c -1.10728,-0.004 -2.21457,-0.008 -3.32184,-0.0115 -12.90521,0.28243 -25.57805,0.75871 -38.38,-1.09867 -15.1437,1.34208 -30.08895,-1.04147 -45.14078,0.31919 -6.52332,-2.16784 -11.11339,0.61584 -12.6712,0.18162 z"
       inkscape:connector-curvature="0" />
    <path
       style="color:#000000;display:inline;overflow:visible;visibility:visible;opacity:1;fill:#000000;fill-opacity:1;fill-rule:nonzero;stroke:none;stroke-width:0.00101255;stroke-linecap:butt;stroke-linejoin:miter;stroke-miterlimit:4;stroke-dasharray:none;stroke-dashoffset:0;stroke-opacity:1;marker:none;marker-start:none;marker-mid:none;marker-end:none"
       id="path3039"
       d="m 196.17494,96.045077 c 2.07076,-0.275455 4.07005,-1.423012 6.65707,-1.718977 6.42448,-0.966516 14.32568,-1.604888 21.92167,-1.539369 8.2815,1.81804 5.48228,0.855671 15.66809,-1.278131 4.43,-0.928032 5.74763,1.677495 10.8569,0.523436 3.58637,2.811997 7.43992,-0.140215 11.62726,1.448869 3.47672,1.562072 8.1899,1.276626 13.84275,1.351661 4.98355,-1.063533 9.09931,-0.979339 14.03206,-0.548398 0.97391,1.41519 3.34842,1.071438 5.06293,0.963322 l -4.8844,3.549288 c -1.64771,-0.06364 -3.40968,-0.279544 -4.81203,-1.146961 -5.09203,1.286753 -10.47101,0.810623 -15.24479,1.399368 -3.3241,-0.262077 -12.25274,-1.167252 -12.70207,-2.204989 -4.88855,0.599983 -9.44046,-0.326145 -14.25866,0.493306 -8.94943,0.95035 -15.22848,-3.626827 -24.70869,-0.497059 -6.51878,-2.069419 -17.89169,4.992937 -22.05771,1.728958 -2.58598,0.433703 -5.77488,2.537439 -6.33712,1.353052 z"
       inkscape:connector-curvature="0" />
    <path
       style="color:#000000;display:inline;overflow:visible;visibility:visible;opacity:1;fill:#000000;fill-opacity:1;fill-rule:nonzero;stroke:none;stroke-width:0.00101255;stroke-linecap:butt;stroke-linejoin:miter;stroke-miterlimit:4;stroke-dasharray:none;stroke-dashoffset:0;stroke-opacity:1;marker:none;marker-start:none;marker-mid:none;marker-end:none"
       id="path3041"
       d="m 32.622362,134.07366 c 9.440505,-6.51397 -0.814125,-0.11187 3.618687,-1.228 1.943448,-0.76225 4.092778,-0.8329 6.155539,-1.15386 1.854717,0.92193 3.399937,0.62883 5.206649,-0.23659 2.117871,-0.26184 2.10667,0.6161 3.181675,1.28348 0.297824,0.76398 2.091116,0.80527 5.85653,-0.62775 -0.758109,1.03963 3.192736,-0.24002 4.354028,-0.20617 -1.02623,0.83068 2.769912,0.66143 3.959872,0.0894 -0.686595,0.64373 -2.975822,1.71514 -2.059786,1.93119 2.846205,0.67133 3.866586,-1.50973 4.796173,-1.2952 3.618503,-1.5716 0.507035,-0.26243 2.58011,0.60272 1.29038,-0.56593 2.789086,-0.42048 4.19405,-0.52739 5.137941,-2.11106 -0.06424,0.21954 3.549593,-0.0395 4.049694,-1.46829 -3.058455,2.94515 3.310567,0.25922 4.234844,-2.01431 4.219756,-0.0799 5.983829,-0.72895 2.541023,-0.32464 2.61278,-0.11837 2.482249,1.08051 1.933058,0.2406 6.205586,-3.00658 5.172536,0.50485 2.654906,-0.97595 3.158789,0.39845 5.549527,-0.72612 -1.468025,0.50503 2.84732,-0.9495 3.73725,0.43506 2.36248,-0.26096 5.07963,-1.80809 4.34524,0.34832 0.34131,-0.58307 5.25411,-1.72786 2.74816,0.81929 2.69873,-1.85184 4.87229,-1.35498 6.44893,-2.13811 -3.27075,2.57941 3.16099,0.2123 4.29553,-0.20452 3.96777,-1.63815 2.89766,1.00835 1.05426,2.76499 3.97263,-3.19149 3.47531,-0.74537 6.62894,-2.13738 2.24923,-0.26273 3.81398,-0.58592 2.68511,0.61842 1.84566,-0.60108 2.03313,0.75494 2.07921,0.76827 3.37379,-2.22589 1.62583,-0.0543 4.65588,-0.87476 5.02953,-2.12518 -0.79191,1.60986 2.54787,0.72578 0.35384,-0.12468 0.7077,-0.24935 1.06155,-0.37403 l -5.7727,4.19442 c 0.38905,-0.41509 0.7781,-0.83017 1.16715,-1.24526 -4.77523,2.81584 -2.05398,-0.22486 -6.24266,1.95902 -8.22722,2.70602 5.0414,-4.34743 -3.42938,-0.0436 -0.69982,-0.0996 -0.34661,-1.66802 -3.38513,-0.006 -0.95247,-0.34039 0.67194,-2.21167 -2.49791,-0.5413 -4.89335,0.85186 3.37438,-3.88278 -2.48266,-0.87508 -1.66099,0.29695 -7.66087,3.1319 -4.47575,-0.27915 -5.6787,2.32041 -0.69416,-0.0594 -5.12413,0.80655 -3.56151,1.96128 -0.93112,0.33479 -1.84042,-1.21016 -7.08366,2.92786 -0.28197,-1.30705 -6.23431,1.71377 -1.18446,-0.62636 -1.50782,-2.0218 -4.311538,-0.37245 -1.402649,-0.0368 -1.884733,-1.01396 -4.916538,0.40344 -6.713309,1.39741 4.490297,-3.76954 -4.119421,-0.37096 4.211188,-5.4517 -10.068806,4.00052 -3.240023,-1.83315 -8.126407,3.47098 0.220196,-0.87029 -6.720795,1.99899 -0.151957,-0.0994 -5.562204,1.00585 -3.325001,-1.20281 -2.200204,0.71834 -2.673956,0.0616 -5.046,1.00165 4.198531,-5.95704 -2.638607,0.72144 -4.40693,0.66242 1.202475,-1.01806 2.716545,-1.75468 3.607426,-3.05418 0.173963,-0.25375 -7.80426,4.28321 -5.046397,1.57988 -7.22748,2.76493 7.93375,-5.31583 -3.754188,0.25028 -1.557637,-0.97309 -0.09453,-2.38471 -6.118922,1.82178 3.415195,-3.09339 1.079602,-2.21392 0.166346,-3.08673 -0.886494,0.38853 -8.036391,3.94261 -4.93773,0.62575 -2.683785,0.53166 -5.233134,0.60102 -7.73417,1.92149 4.088696,-4.23498 -0.573928,0.27177 -1.619824,-2.34408 0.463327,-4.31542 -2.787088,1.00761 -4.347208,-0.38783 -13.393394,4.08567 8.462203,-4.476 -6.775913,1.60459 3.064389,-2.99714 -4.133353,2.01714 0.762934,-1.95543 z"
       inkscape:connector-curvature="0" />
    <path
       style="color:#000000;display:inline;overflow:visible;visibility:visible;opacity:1;fill:#000000;fill-opacity:1;fill-rule:nonzero;stroke:none;stroke-width:0.00101255;stroke-linecap:butt;stroke-linejoin:miter;stroke-miterlimit:4;stroke-dasharray:none;stroke-dashoffset:0;stroke-opacity:1;marker:none;marker-start:none;marker-mid:none;marker-end:none"
       id="path3043"
       d="m 32.721391,142.89385 c -2.044901,2.16362 1.812948,0.27796 2.068841,0.21652 5.157552,-2.17201 4.99201,0.64984 7.805384,0.18023 4.329181,3.79454 8.717797,-2.43339 14.252127,-2.52734 1.054689,-0.0179 -1.353384,1.94603 -1.095476,2.96886 0.172066,0.68239 1.338864,0.43417 2.008295,0.65125 4.60571,-1.23547 10.039455,-3.99948 16.350983,-0.60435 3.681901,3.0489 12.160516,-3.21213 16.153238,-0.7973 3.727958,1.01636 5.662882,1.66702 8.863307,2.59183 3.73812,-0.20656 15.42648,-6.15178 15.35049,-0.72634 5.24857,-0.94005 10.34185,-1.91437 15.69885,-2.27925 2.28226,0.11723 4.21658,-0.72011 6.3298,-0.21007 3.08857,-1.51548 -1.13137,1.95317 -0.72472,1.90405 3.21399,-0.38823 3.88126,-3.12407 2.23956,-0.17644 0.33543,-0.0953 0.67086,-0.19047 1.00628,-0.28571 l -5.29481,3.84619 c -0.47252,0.19474 -0.94503,0.38948 -1.41756,0.58423 -7.45173,3.20857 2.33775,-2.30853 -2.68455,-0.87605 -2.28145,-0.79281 -4.01119,0.0928 -6.45381,0.3299 -0.85942,0.13547 -8.20141,0.33184 -11.31623,-0.90881 -6.7587,1.89937 -11.60635,0.82002 -18.46033,2.95882 0.13243,-3.56549 -9.058614,-0.72014 -11.416897,-0.7542 -4.501985,-1.74576 -9.416169,-1.44706 -13.116873,-1.41527 -2.909211,0.14368 -14.522449,1.25643 -13.51185,-1.4451 -1.139528,0.29778 -11.634362,2.87836 -12.393022,2.55632 -0.995244,-0.42248 2.349149,-2.72105 1.297649,-2.97273 -3.098215,-0.74155 -5.867095,3.56855 -9.08184,2.97656 2.261289,-8.99864 -11.117052,5.80843 -4.466648,-2.60596 -1.843711,0.87547 -5.27132,2.34403 -3.55352,0.86215 z"
       inkscape:connector-curvature="0" />
    <path
       style="color:#000000;display:inline;overflow:visible;visibility:visible;opacity:1;fill:#000000;fill-opacity:1;fill-rule:nonzero;stroke:none;stroke-width:0.00101255;stroke-linecap:butt;stroke-linejoin:miter;stroke-miterlimit:4;stroke-dasharray:none;stroke-dashoffset:0;stroke-opacity:1;marker:none;marker-start:none;marker-mid:none;marker-end:none"
       id="path3049"
       d="m 33.841127,152.09055 c -3.79665,1.61751 4.421873,-1.65577 8.185913,0.28838 15.781281,2.21257 31.248585,2.96508 47.615898,-0.31772 12.849022,2.22047 25.336912,0.11964 38.093432,-0.7749 6.89204,-1.77788 8.32611,-0.2599 15.67693,-2.893 4.33044,0.51542 0.40452,2.27931 4.91945,3.04792 l -3.64832,2.62146 c -3.41615,0.77532 -5.57243,1.78449 -8.39628,-0.53609 -3.62468,1.38688 -7.38438,1.83018 -10.43197,-0.8637 -13.29403,3.07705 -24.84502,4.47348 -38.293338,0.92095 -16.624566,4.35366 -34.124529,4.76228 -51.265667,2.92872 -5.637585,-0.20917 -5.844993,-1.56456 -10.190774,1.19759 z"
       inkscape:connector-curvature="0" />
    <path
       style="color:#000000;display:inline;overflow:visible;visibility:visible;opacity:1;fill:#000000;fill-opacity:1;fill-rule:nonzero;stroke:none;stroke-width:0.00101255;stroke-linecap:butt;stroke-linejoin:miter;stroke-miterlimit:4;stroke-dasharray:none;stroke-dashoffset:0;stroke-opacity:1;marker:none;marker-start:none;marker-mid:none;marker-end:none"
       id="path3051"
       d="m 196.48426,131.71792 c -0.12597,1.48144 2.17468,-0.55723 3.08308,-1.14995 -0.22243,1.97352 -2.18987,3.43616 2.53626,0.54735 4.64684,-1.53164 -0.0697,2.12563 3.40254,0.0205 -4.35954,5.37461 6.41901,-5.02008 1.18151,1.62777 1.57833,-0.8993 5.34147,-3.81489 3.41796,-0.013 3.19685,-1.5537 6.78769,-3.1654 5.03263,-0.97337 -2.23753,2.3013 2.22701,0.23877 3.08694,0.0466 7.37352,-4.6321 -3.84654,4.46681 3.36084,-0.13977 1.25745,0.89935 4.81518,-1.05692 3.59392,0.9069 -0.21327,1.7724 5.19073,-1.89093 3.63942,0.30554 3.84364,-2.18361 2.78697,1.33338 4.99033,0.58117 2.58726,-1.35641 3.46646,-1.77386 4.50064,-0.11117 11.74592,-6.62809 -3.49016,3.30918 4.30566,-0.97146 0.72249,1.71777 0.62889,1.2722 3.9266,-0.72268 -3.05472,4.27284 1.03575,1.38436 2.52532,0.48411 -1.75494,2.99371 0.43065,1.77073 3.94,-0.65025 -1.4771,4.13515 3.58247,-0.43855 1.30226,3.37317 9.3866,-5.32674 -2.29256,2.25195 7.14828,-1.78614 2.97625,-0.99598 3.09065,0.17097 3.02328,0.52777 0.78672,-0.33166 1.67622,0.22677 2.47525,0.51774 5.71403,-4.01027 -0.41391,2.13133 6.5126,-2.91618 -5.33617,4.13517 0.49586,1.00137 0.65458,0.92299 -4.11437,3.79243 1.64293,0.32428 3.31585,-0.59106 3.45891,-2.64161 0.64831,1.20782 4.71235,-1.0215 -1.70485,0.79552 1.54986,0.91386 2.40479,0.61211 6.61202,-2.83704 -3.38076,1.11133 2.2666,0.65095 3.00967,-0.97561 5.80666,-4.39035 3.08732,-0.0165 -0.38393,0.44732 -0.76787,0.89464 -1.15181,1.34197 l -4.3146,3.57007 c -0.13312,-0.0195 -0.26624,-0.039 -0.39937,-0.0585 -0.71307,0.17079 -2.51489,-0.18679 -2.05952,-0.83466 -0.38103,-0.0495 -6.84052,2.47466 -3.22984,0.14517 2.94951,-4.29564 -2.16507,1.0227 -3.69059,0.51009 0.24753,-0.36051 1.11393,-1.25643 0.7426,-1.08152 -10.0307,4.72448 2.64992,-0.48573 -2.75964,-0.0222 -3.57777,1.28315 -4.1959,2.26521 -5.26018,2.40159 0.46352,-0.84701 2.07001,-1.91064 1.39059,-2.54104 -0.79959,-0.74192 -1.78215,1.1829 -2.67323,1.77436 -2.36447,1.17004 -2.82594,0.67845 -3.17991,0.15872 -3.70863,1.78941 -2.35315,-0.0545 -4.14014,0.86065 -0.11149,-0.013 -0.68114,-0.96188 -2.71076,-0.79337 -0.75015,0.24305 -6.15481,1.47205 -4.65745,-0.29654 -9.79414,5.7814 5.36092,-4.33394 -5.78599,0.36458 0.5119,-0.578 1.20152,-1.00658 1.53566,-1.73399 0.64401,-1.40199 -2.91741,2.13254 -4.03445,1.19173 -6.68541,4.18641 3.01722,-4.44975 -3.7315,0.51397 -5.23492,2.58473 2.23576,-3.2025 -3.95202,0.74422 -1.47391,0.042 -1.49151,0.43065 -1.72708,-1.16236 -9.72358,5.46912 4.51595,-4.34632 -4.18291,-0.16167 -3.34986,0.98862 -2.59213,-0.18922 -5.26105,-0.43472 -2.41071,0.56448 -2.46529,-0.28629 -4.9245,0.84498 -3.67636,0.40709 -0.34713,-1.75334 -3.35261,-1.106 -0.64794,0.41586 -9.25732,5.36657 -2.63764,-0.4609 -0.90402,0.22372 -5.55041,2.43414 -3.12639,-0.0582 -0.99126,0.46555 -5.92627,2.98283 -4.61889,0.61191 -2.9023,1.34124 -1.32538,0.89694 -0.5409,-1.02942 0.49021,-1.20376 -1.9838,1.69547 -3.14855,1.72877 -0.57031,0.0163 0.80005,-0.92644 1.20008,-1.38967 -5.31602,1.97216 2.74836,-4.85437 -6.92526,3.12483 8.69675,-7.99769 2.01571,-2.16457 -0.83855,-2.14201 -0.82075,0.41167 -3.06591,0.46886 -2.66219,-0.44316 -0.9765,0.3833 -5.56501,3.23622 -2.31005,0.51031 z"
       inkscape:connector-curvature="0" />
    <path
       style="color:#000000;display:inline;overflow:visible;visibility:visible;opacity:1;fill:#000000;fill-opacity:1;fill-rule:nonzero;stroke:none;stroke-width:0.00101255;stroke-linecap:butt;stroke-linejoin:miter;stroke-miterlimit:4;stroke-dasharray:none;stroke-dashoffset:0;stroke-opacity:1;marker:none;marker-start:none;marker-mid:none;marker-end:none"
       id="path3059"
       d="m 193.19414,141.57956 c 7.70409,-5.3305 -5.22657,4.20317 4.88306,0.5674 10.60908,1.32113 20.08372,-3.36974 30.78193,-0.67268 15.86162,3.67627 -11.08019,-1.86348 12.32275,-0.61033 1.08516,0.0581 1.52572,2.4353 2.5985,2.24028 3.6625,-0.66577 6.70658,-3.92719 10.36845,-4.59742 0.8428,-0.15425 0.64156,1.99222 1.39743,2.44392 0.99037,0.59184 2.22541,0.25736 3.33812,0.38604 5.7769,-0.33972 9.2105,-0.93381 15.07553,-0.82278 3.97753,1.19729 10.04529,0.40933 15.63834,-0.23709 1.58099,2.38412 4.88353,0.55686 6.75071,0.21434 l -6.95305,5.75372 c -1.15655,-0.34952 -3.78776,-0.31559 -3.30314,-3.06757 -4.97824,2.04058 -12.79022,4.07764 -17.01733,1.36401 -8.31997,2.05629 -3.03514,-0.53627 -4.25954,-1.33421 -1.71914,-1.12035 -7.29157,4.57032 -9.17229,0.79434 -11.01475,3.691 -22.78187,-2.81576 -34.0542,3.53781 -0.004,-1.70923 1.47607,-4.9105 -0.0126,-5.12768 -3.55863,-0.51917 -6.72572,3.08181 -10.28148,3.62586 -3.79788,0.58109 -14.92133,-1.71176 -19.69095,1.37046 -2.58137,-0.4214 -3.41437,-1.04622 -2.93433,-2.08503 z"
       inkscape:connector-curvature="0" />
    <path
       style="color:#000000;display:inline;overflow:visible;visibility:visible;opacity:1;fill:#000000;fill-opacity:1;fill-rule:nonzero;stroke:none;stroke-width:0.00101255;stroke-linecap:butt;stroke-linejoin:miter;stroke-miterlimit:4;stroke-dasharray:none;stroke-dashoffset:0;stroke-opacity:1;marker:none;marker-start:none;marker-mid:none;marker-end:none"
       id="path3061"
       d="m 193.43148,151.13087 c -0.38741,1.62211 8.04344,-0.69692 11.30702,0.17384 8.88044,6.7819 12.66089,2.64021 23.26024,2.27427 2.93986,-0.1015 5.76652,2.08404 8.69147,1.73248 20.18044,-5.81316 10.86161,-4.4723 27.78497,-5.34608 17.42691,4.07915 -3.54264,0.39081 20.68625,-1.18203 2.06833,-0.13426 4.00924,1.1909 6.01385,1.78635 2.51803,-0.22435 5.03605,-0.4487 7.55407,-0.67305 l -4.66195,3.86921 c -15.55932,-3.92603 11.67735,2.01244 -17.78453,2.40975 -1.97398,0.0266 -3.38379,-2.3169 -5.0757,-3.47536 -3.85477,0.42986 -7.70955,0.8597 -11.56433,1.28956 -19.88557,0.19299 -38.9283,5.01671 -58.59286,0.36694 -6.46178,-0.56228 -11.04661,-0.27625 -13.10963,1.31769 z"
       inkscape:connector-curvature="0" />
    <path
       style="color:#000000;display:inline;overflow:visible;visibility:visible;opacity:1;fill:#000000;fill-opacity:1;fill-rule:nonzero;stroke:none;stroke-width:0.00101255;stroke-linecap:butt;stroke-linejoin:miter;stroke-miterlimit:4;stroke-dasharray:none;stroke-dashoffset:0;stroke-opacity:1;marker:none;marker-start:none;marker-mid:none;marker-end:none"
       id="path3063"
       d="m 39.60118,176.12388 c -3.059844,2.67275 -3.283005,3.2669 0.872915,0.79683 2.59974,-0.56151 3.277963,-1.37183 1.782947,1.15652 1.652248,-0.82438 3.663009,-0.60685 5.401236,-1.22982 0.842118,1.84784 2.69474,0.54763 4.28463,0.0532 -0.274671,1.285 3.424405,-0.35966 4.743031,-0.82638 -5.064911,2.66373 2.164004,0.89327 2.206496,0.90818 3.579361,-1.008 2.19417,0.27785 5.184327,-0.33129 0.537062,-0.14265 1.743691,-0.96762 1.611186,-0.42796 -0.843644,3.43591 -2.083329,3.06551 5.16567,-0.14867 4.184073,-1.92118 0.657883,-0.54358 -0.626753,1.46062 -0.893699,1.39427 4.730568,-3.92715 4.401835,-2.30399 -0.322565,1.5927 -2.316674,2.27948 -3.47501,3.41922 7.386251,-4.68437 0.554996,-0.39178 6.547625,-1.4233 0.462413,-0.13893 1.643645,-0.82594 1.38724,-0.41682 -5.841727,9.32128 9.170526,-6.90735 0.462023,2.19053 2.07007,-1.42141 6.892911,-2.26134 7.15673,-2.40352 3.166026,0.37263 -4.796604,2.56703 -3.639705,3.92565 1.252957,1.47142 3.1236,-3.25513 5.022598,-2.89626 1.550058,0.29293 -2.7283,1.80869 -3.501473,3.18372 -0.942662,1.67645 3.494852,-1.6102 5.202867,-2.49438 -0.318461,0.40931 -1.425566,1.44679 -0.955383,1.22796 13.222948,-6.15427 -4.112534,1.89472 4.333532,-0.83265 5.655615,-2.50561 -0.705785,1.86531 4.723911,-1.12065 4.487005,1.27161 -2.567695,4.42883 3.575185,1.10403 7.62623,-4.10481 -6.620741,6.18925 3.7616,0.022 -0.0792,1.00576 1.77373,0.9304 3.31207,0.19741 0.33046,0.54288 4.15752,-0.24057 5.22776,-0.5364 -6.38097,8.28313 7.11209,-10.32223 3.33334,-0.64615 -0.63819,1.6342 -9.72614,6.87471 -1.2057,1.7481 0.0647,0.82293 2.49293,0.51126 2.7733,0.47955 5.17385,-2.75478 4.02281,0.14197 6.37212,-0.76582 -0.91368,0.89098 -4.01645,2.62781 -2.74106,2.67295 2.03149,0.0719 4.4452,-1.03752 7.19156,-2.1398 9.80459,-2.92445 -7.76878,3.32987 3.71223,-0.71169 5.62384,-1.97971 -11.00512,6.47748 0.75791,0.29434 2.78152,-2.28291 1.75782,1.17798 1.62379,1.48094 6.51903,-4.02456 3.39416,-0.0956 8.25848,-2.77067 -7.75393,8.05418 7.97183,-4.70345 0.30073,2.31524 l -1.23111,0.89447 c -12.77683,8.30724 1.44911,-1.89455 -9.09662,4.07532 8.24588,-7.36483 -0.43558,0.52026 -1.3092,-2.27827 -6.24867,1.95528 0.884,-3.11927 -9.09029,3.94379 2.56919,-2.21696 4.37892,-3.81208 0.95341,-3.52307 -0.89754,0.31357 -5.19175,0.97814 -5.24077,0.041 -4.99766,1.61193 -1.75618,-0.4421 -6.10056,0.56851 4.87326,-5.02679 -6.77516,4.5437 -1.70811,-1.25345 -1.81539,1.17584 -3.43257,2.73785 -5.44619,3.52752 -3.24539,1.27273 4.72651,-3.98068 1.55195,-3.34577 -3.54936,1.02469 -5.90063,1.81959 -8.408031,2.84811 6.276151,-5.48995 -0.01873,-1.35225 -3.117558,-0.35306 7.263079,-8.56043 4.633829,-2.66451 -0.357631,-2.56098 -6.056409,2.73724 0.383633,-2.30345 -3.890333,-0.82043 -4.31758,2.45692 -1.194763,0.25691 -5.077144,1.21265 -0.262376,-1.37595 -0.974902,-2.77314 -3.232483,-0.35553 -1.102317,-0.93148 -3.106763,-1.07448 -5.289241,-0.19122 4.775994,-5.30561 0.05189,-1.04291 -2.947387,-0.55504 -3.45596,1.72675 3.207705,-3.83089 -4.591783,0.11251 -4.481009,1.08166 -0.430168,-1.59164 -0.935582,-2.52964 -2.502083,1.4517 -4.403785,1.83744 -8.060716,3.06259 4.403454,-5.32308 -1.30299,-1.41173 -4.080367,-1.38248 -7.724165,3.14062 3.350403,-1.02008 -0.0866,-1.28917 -0.936958,-0.0733 -2.481592,0.8459 -5.744591,2.09043 -0.01862,0.005 -4.373064,2.02411 -2.606728,-0.61739 -3.988449,0.42309 2.539495,-2.71945 -3.597921,-0.006 -5.292218,0.98514 1.287633,-2.51921 -3.099834,-0.91395 -7.806016,4.5442 0.386954,-2.10942 -7.331592,2.63231 0.884683,-0.77461 2.116753,-1.27788 2.654048,-2.32383 0.754587,-1.46893 -5.486916,2.87652 -4.753203,1.39705 -0.671228,0.17495 -1.324584,0.60421 -2.013683,0.52485 -3.998022,-0.46038 3.396939,-1.82079 1.845236,-1.83351 z"
       inkscape:connector-curvature="0" />
    <path
       style="color:#000000;display:inline;overflow:visible;visibility:visible;opacity:1;fill:#000000;fill-opacity:1;fill-rule:nonzero;stroke:none;stroke-width:0.00101255;stroke-linecap:butt;stroke-linejoin:miter;stroke-miterlimit:4;stroke-dasharray:none;stroke-dashoffset:0;stroke-opacity:1;marker:none;marker-start:none;marker-mid:none;marker-end:none"
       id="path3065"
       d="m 34.713313,185.84541 c -1.425976,1.52754 1.419686,0.45204 5.658656,-1.78361 -12.390323,9.46097 3.656162,2.79797 10.298357,5.1004 8.868638,-3.17039 16.691322,-0.2674 25.562953,-0.36112 9.609762,0.097 9.384721,-1.804 18.795043,-0.053 0.611304,1.06811 9.578778,1.68704 12.681458,1.01767 4.96737,1.01056 15.79947,-6.98661 6.54147,1.41219 6.63087,-4.1792 5.29323,-0.43806 11.60711,-3.7684 -6.16258,5.25997 1.17073,1.41913 3.396,1.87771 11.53853,-5.91491 -14.41139,11.89333 10.45926,-2.71462 -14.14225,9.7307 -0.14144,3.60393 3.79851,1.46462 -1.3597,1.16492 -2.92839,2.12301 -4.07907,3.49477 -0.99724,1.18881 2.85528,-1.22038 4.31539,-1.74555 l -8.4093,6.10977 c 4.61716,-4.45226 4.76823,-3.93832 -0.18623,-1.78536 -6.61284,2.16764 6.62143,-5.82453 -7.05417,0.90131 -4.35143,1.01945 -4.91993,0.18897 -4.19359,-1.84659 -1.13407,0.49367 -9.55633,3.78405 -6.61067,0.36314 -2.66726,1.08695 -5.3134,2.39426 -8.15751,2.84897 -12.431487,1.98748 12.3089,-5.78532 0.68763,-1.98316 -3.47441,0.68699 -6.00441,-0.46928 -10.128117,1.18372 2.023217,-4.5775 -5.052786,-0.27866 -7.306248,-1.3052 -5.919114,-2.69641 10.481965,-3.76738 -1.857289,-2.28763 -4.662462,-0.44514 -18.962907,3.65085 -18.776477,0.0389 -9.700192,-1.60662 -16.918978,3.08257 -25.986538,0.66807 -7.160106,-5.04537 -11.346061,-3.35611 -17.667894,0.13592 4.441987,-7.51416 -8.515152,5.71584 0.600229,-2.61572 z"
       inkscape:connector-curvature="0" />
    <path
       style="color:#000000;display:inline;overflow:visible;visibility:visible;opacity:1;fill:#000000;fill-opacity:1;fill-rule:nonzero;stroke:none;stroke-width:0.00101255;stroke-linecap:butt;stroke-linejoin:miter;stroke-miterlimit:4;stroke-dasharray:none;stroke-dashoffset:0;stroke-opacity:1;marker:none;marker-start:none;marker-mid:none;marker-end:none"
       id="path3067"
       d="m 32.334838,197.10172 c -2.518131,2.55666 4.673865,-3.24002 4.471227,-1.89308 -0.572039,3.80236 -7.069868,3.99277 0.348976,2.92316 9.112581,-6.88043 13.39787,0.13695 22.084934,-0.32158 14.94329,-0.78873 5.744455,-3.6665 16.134701,0.9805 10.670089,-0.70373 46.380794,-1.33688 54.456814,2.19547 11.82033,-2.28541 6.77665,-2.56839 15.11496,-1.09854 l -2.52668,1.82128 c -2.30635,-8.80636 0.23248,-4.1566 -15.81249,1.59968 -18.68964,-2.55007 -35.71126,-1.6734 -54.22909,-2.34081 -10.452186,-6.7861 0.783668,-1.24713 -18.746568,0.91713 -3.182362,0.35266 -5.437568,-5.00587 -9.179408,-2.82924 -3.017943,0.46311 -5.70409,2.29512 -8.708265,2.84048 -0.925154,0.16794 -1.809716,-0.51126 -2.714574,-0.7669 -16.352799,6.61469 -2.353638,2.07858 -3.654429,-0.5216 -0.0095,-0.0191 -3.757058,2.28903 -2.423632,0.4054 z"
       inkscape:connector-curvature="0" />
    <path
       style="color:#000000;display:inline;overflow:visible;visibility:visible;opacity:1;fill:#000000;fill-opacity:1;fill-rule:nonzero;stroke:none;stroke-width:0.00101255;stroke-linecap:butt;stroke-linejoin:miter;stroke-miterlimit:4;stroke-dasharray:none;stroke-dashoffset:0;stroke-opacity:1;marker:none;marker-start:none;marker-mid:none;marker-end:none"
       id="path3069"
       d="m 194.33558,178.923 c 7.47995,-5.55747 -3.97935,4.00022 6.49615,-3.82157 -0.44996,1.50936 -6.83341,7.18423 -0.40782,2.80076 8.56982,-4.9177 -7.35635,6.34333 2.6698,0.30614 1.81031,0.64499 3.66609,-1.15084 5.42107,-1.97058 8.59578,-4.90082 -12.26525,8.89131 0.49889,0.83052 1.31311,-0.82925 0.12089,0.7592 0.17891,1.12349 5.19801,-3.55616 3.95673,-2.19259 2.53476,-0.44618 11.30198,-7.17131 -8.14507,6.58327 7.76291,-4.05913 -7.42934,6.44188 3.50798,-1.23676 -2.37233,5.00422 7.64639,-4.97336 2.69408,0.23438 8.14466,-3.5345 9.98992,-2.96812 -12.3228,6.30743 1.77747,1.23459 -0.85287,0.84094 -1.70575,1.68187 -2.55863,2.5228 -13.28756,8.99014 6.68615,-5.21789 5.27339,-3.54096 -0.1141,0.13546 -7.3567,6.21699 -2.12462,3.0581 -0.73815,2.22757 7.05542,-4.77438 5.71175,-2.95036 -1.94402,2.63896 -8.25805,6.64236 0.94522,0.28854 -1.63681,3.47619 1.06082,-0.55435 0.95454,3.10813 -5.19111,7.33017 9.72204,-9.02903 3.9124,0.0456 5.6665,-2.21628 -4.75336,3.8364 3.63237,-0.67642 8.02379,-5.59712 -4.8167,5.34899 5.66787,-1.78655 -5.51993,5.78155 2.68012,2.25283 3.21138,2.14345 0.63574,-0.30632 1.22104,-0.83339 1.90724,-0.91897 1.38054,-0.17215 -3.39656,2.18912 -2.73484,3.57972 0.57391,1.20604 3.45013,-3.40182 8.69146,-4.39937 5.48298,-0.95182 -2.39237,5.1695 4.24922,2.02849 -2.2808,3.37526 3.51778,0.007 4.16227,-0.45576 -5.22412,5.75563 5.79728,-4.16903 0.40929,1.85915 6.34779,-4.96107 0.14468,0.19648 5.23343,-2.55845 4.66117,-2.90825 -0.15743,-0.10191 -0.98694,1.6569 -1.08039,2.29074 7.6131,-5.6074 5.99547,-3.77233 -1.55731,1.76663 -3.43219,3.12847 -5.14828,4.6927 2.50376,-1.01181 10.61206,-6.35974 6.3828,-1.89246 3.61174,1.70638 3.04149,-5.90936 6.16137,-2.82188 1.21803,1.20538 -2.4854,2.34451 -3.7281,3.51677 2.25704,-1.33736 2.68009,-1.10116 5.41168,-1.96369 -1.23058,3.21027 3.00449,-0.80282 0.87281,1.72032 2.7998,-0.76094 7.63569,-5.44195 0.28301,1.49955 -2.59898,0.28903 -2.3464,0.46776 0.43906,-0.88447 l 5.09599,-2.27342 c -0.34256,0.196 -0.68514,0.392 -1.02769,0.588 -2.07825,1.36534 -4.15648,2.7307 -6.23473,4.09605 -3.23763,1.49381 -0.35688,-0.41136 -2.33315,0.0999 -0.92823,0.34075 -2.46742,1.77688 -2.84968,0.75505 -0.61167,-1.63505 7.77043,-5.92249 3.40607,-3.65795 -10.18794,6.84239 1.12228,-2.08217 -8.58028,4.58541 2.1745,-2.65342 3.90936,-4.49649 -0.0876,-2.63626 -8.10398,4.07878 3.21399,-3.79914 -7.22079,2.58695 -5.0932,2.70089 0.44387,-1.25878 1.00219,-3.24697 -5.91319,3.78667 1.10869,-2.00656 -5.77058,3.14146 6.31797,-7.48977 -3.32057,3.43514 -1.95738,-0.76106 -2.03148,1.23468 -4.09491,1.9309 -3.26624,-0.28533 -4.52761,2.33774 -4.57139,0.65112 -9.30174,2.1484 -4.5503,-0.4359 2.05645,-3.39602 -1.84399,-3.27245 -1.26048,0.81439 -12.87828,6.33038 -6.88286,0.92775 -3.89693,1.59245 -5.18061,2.2535 -2.69943,-0.70399 -9.57412,6.52141 8.04862,-5.98678 -3.45948,1.65752 -0.7056,0.4687 -2.53161,2.14838 -2.15882,1.32063 0.7635,-1.69535 5.03741,-3.83941 1.08423,-1.68334 -1.52948,-1.3852 2.20079,-3.68602 -2.73911,-0.9218 -1.82497,-0.44101 3.46435,-4.92545 -6.66229,1.45154 7.24509,-7.90525 -10.91495,7.3384 -0.6603,-2.06946 -9.66968,5.21486 8.32316,-7.74831 -6.91508,3.19358 4.82509,-4.66155 4.5273,-4.53924 0.71006,-3.29321 4.08297,-4.51464 -3.06277,0.97575 -4.50937,0.52585 3.87327,-5.46008 -1.50327,0.47381 -3.24593,-0.33817 -0.99678,0.54651 -2.71628,2.86015 -2.99035,1.63952 -0.33133,-1.47557 3.92602,-2.93353 2.30273,-3.38717 -4.10799,2.87474 -5.27756,3.77914 -6.91489,4.00657 -2.63482,0.0518 1.32212,-2.27739 -2.78622,-0.20941 -8.46543,4.60726 5.45032,-4.46023 -1.23059,-1.4968 -1.43403,0.15465 0.35282,-1.59285 -3.41995,0.31456 -2.11463,-0.0844 -0.64628,-1.50118 -2.40113,-0.47651 0.652,-0.78955 2.80643,-2.85515 1.95599,-2.36864 -15.85276,9.06896 3.03044,-0.62206 -5.18733,3.48877 z"
       inkscape:connector-curvature="0" />
    <path
       style="color:#000000;display:inline;overflow:visible;visibility:visible;opacity:1;fill:#000000;fill-opacity:1;fill-rule:nonzero;stroke:none;stroke-width:0.00101255;stroke-linecap:butt;stroke-linejoin:miter;stroke-miterlimit:4;stroke-dasharray:none;stroke-dashoffset:0;stroke-opacity:1;marker:none;marker-start:none;marker-mid:none;marker-end:none"
       id="path3071"
       d="m 191.58755,187.54411 c 1.05788,0.84342 -1.96422,0.19534 3.4658,0.19708 2.67463,-0.82534 0.0728,2.78406 0.98687,2.96294 5.68214,1.1119 19.67664,-13.74355 12.22532,-0.14982 5.44423,-0.82372 11.01773,-4.64731 16.37025,-5.48664 6.30617,-0.98886 -0.61689,4.77756 10.41995,0.60138 1.05299,0.12183 2.17172,-0.0691 3.15894,0.3655 1.65486,0.72843 3.79424,4.4014 6.10451,3.74494 8.13795,-2.31239 7.72093,-7.39194 7.16956,-0.51131 8.24627,-3.51094 11.51141,-0.35079 18.12521,-0.37338 7.96399,-2.16586 3.1201,1.72065 6.75004,2.06173 3.81589,-0.33184 7.16294,-0.51647 10.43257,-1.74627 -5.08266,4.88094 6.30419,-1.20925 6.55441,-1.24079 -0.3628,0.48033 -0.0487,1.74177 0.50416,1.81198 l -2.20115,1.98882 c 0,1e-5 -7.60419,5.88925 -5.76346,2.94114 3.64048,-4.52706 0.28731,0.003 -1.35603,0.0872 -0.73284,0.0374 0.9204,-1.30122 1.38061,-1.95184 -0.0434,-0.23452 0.0791,-0.68006 -0.13034,-0.70359 -1.13037,-0.12698 -2.14829,1.20054 -3.30159,0.96029 -1.13685,0.61285 -2.27368,1.22569 -3.41053,1.83854 0.47025,-0.88006 2.27889,-2.92944 1.41071,-2.64017 -2.33918,0.77946 -3.97732,3.35656 -6.28095,4.26299 -3.02104,1.18873 6.42536,-7.46261 -1.97895,-1.91734 -3.66509,-2.08587 -2.89007,-1.11576 -10.15569,0.93776 2.65236,-7.98673 -9.22431,-0.007 -13.4195,-3.78289 -6.15531,1.61108 -4.2402,-0.81861 -9.52976,-0.40806 -3.4513,0.26788 -6.67215,3.43434 -10.08477,2.7893 -0.89173,-0.16855 -0.0676,-2.05746 -0.10151,-3.0862 -11.20626,3.42206 -9.20788,-1.31982 -9.5017,-1.36475 -1.74182,-0.26634 -12.70635,2.69504 -14.21347,3.56811 -2.15738,-5.32561 -10.94154,1.9042 -15.5427,-0.79339 2.50412,-8.44644 -7.02775,5.38842 -1.1799,-2.16883 z"
       inkscape:connector-curvature="0" />
    <path
       style="color:#000000;display:inline;overflow:visible;visibility:visible;opacity:1;fill:#000000;fill-opacity:1;fill-rule:nonzero;stroke:none;stroke-width:0.00101255;stroke-linecap:butt;stroke-linejoin:miter;stroke-miterlimit:4;stroke-dasharray:none;stroke-dashoffset:0;stroke-opacity:1;marker:none;marker-start:none;marker-mid:none;marker-end:none"
       id="path3079"
       d="m 195.4351,195.10015 c -1.55445,1.66507 1.62246,2.43514 3.10363,4.75575 6.58515,0.54331 17.13543,-5.67744 23.29499,-3.33333 1.33827,0.50931 0.94565,3.0281 1.41847,4.54216 2.77201,-0.48167 5.544,-0.96333 8.31601,-1.44497 5.65107,-9.99418 14.23608,3.99965 16.35847,3.86312 5.92026,-0.38087 15.00384,-10.17101 19.65038,-2.27007 15.42849,-10.8495 5.53046,3.90237 20.27576,-3.19985 5.02572,4.60701 2.03555,-2.0365 9.8283,-0.74631 7.49399,1.24073 -12.89365,8.68171 1.89432,2.49678 l -1.76807,1.61204 c -18.81733,12.03926 -2.17056,3.21648 -4.8269,0.17361 -2.35962,-2.70297 -11.14154,8.70997 -9.62528,0.53766 -4.9816,2.55071 -12.41894,5.42031 -14.44049,-2.08513 -2.96754,0.87081 -25.68965,8.48745 -26.19142,8.19573 -2.65624,-1.54435 6.43618,-8.36856 3.57821,-9.33916 -6.57194,-2.23192 -12.70235,10.37606 -19.99348,5.52558 -9.64231,-8.27895 -22.89638,7.53557 -30.87394,-1.78952 -1.43415,-0.10886 -3.71831,0.83627 -4.27108,-0.67476 -0.24099,-0.65875 1.32331,-1.93014 0.69873,-1.98752 -0.66553,-0.0611 -8.52073,5.89971 -2.66148,0.86921 z"
       inkscape:connector-curvature="0" />
    <path
       style="color:#000000;display:inline;overflow:visible;visibility:visible;opacity:1;fill:#000000;fill-opacity:1;fill-rule:nonzero;stroke:none;stroke-width:0.00101255;stroke-linecap:butt;stroke-linejoin:miter;stroke-miterlimit:4;stroke-dasharray:none;stroke-dashoffset:0;stroke-opacity:1;marker:none;marker-start:none;marker-mid:none;marker-end:none"
       id="path3081"
       d="m 34.132105,224.51504 c -0.978317,2.07023 7.433028,-5.28476 5.801512,-3.67818 -11.726197,11.54699 -7.211971,5.72802 -5.578746,5.12493 4.149084,-1.82835 6.573456,-3.41599 5.714471,-1.67438 -1.826759,0.78882 0.88437,1.24232 -1.260799,3.66254 12.356633,-7.46634 -0.0073,1.25182 6.267382,-2.58075 1.886516,-0.10961 3.245766,-3.78992 5.059743,-3.03152 1.175492,0.49145 -1.237201,2.27095 -2.148736,3.16113 -0.689326,2.08275 -0.205002,1.40832 5.43708,-1.45118 -3.56416,3.46317 3.694321,-0.25863 4.330292,-0.59383 0.218755,0.77003 -5.210932,3.57998 -3.571431,3.41697 2.0222,-0.20106 3.819609,-1.42076 5.61913,-2.36493 3.392567,-1.15172 -2.738545,2.11459 -3.727051,3.50402 -0.786525,1.10554 2.32304,-1.40297 3.466388,-2.13343 18.832463,-12.03175 -10.372365,7.36098 6.28692,-3.27596 -5.46933,5.31595 1.944403,1.00108 2.231331,0.88074 -0.631067,0.604 -1.457792,1.05472 -1.893202,1.812 -0.619964,1.07827 2.282962,-0.99808 3.36822,-1.60573 8.350801,-4.67575 -4.653818,2.89349 1.656555,0.1873 14.702144,-8.24206 -9.559807,8.30217 6.873966,-2.2404 -2.03378,1.62812 -4.28295,3.01875 -6.101337,4.88436 -1.628038,1.67031 7.540182,-5.13891 6.211639,-3.22176 -1.323004,1.90915 -10.12609,7.24483 -0.467199,1.13651 11.351434,-5.84589 -3.24649,2.31646 4.336196,0.12906 1.773015,1.36328 7.279772,-2.7364 2.198253,2.19778 2.127517,-0.80667 7.649482,-3.15682 7.437971,-2.93652 -1.129496,1.17636 -2.465203,2.13568 -3.697803,3.20351 1.803598,-0.2885 9.962414,-6.08298 10.953899,-5.51326 1.739811,0.99969 -6.42517,4.11905 -1.075992,1.91864 -7.024503,3.7665 1.767369,1.17615 2.773073,0.73345 2.34919,0.751 -1.738413,2.86265 5.18753,-1.93927 -0.0164,6.15347 4.09297,-10.05798 -2.42486,3.03487 -1.07276,2.15493 4.4008,-1.97935 6.46539,-3.2171 -2.2193,4.26541 3.55858,0.26497 5.24891,-0.61059 -6.69358,7.40768 6.00693,-5.43661 1.84999,2.04859 9.76902,-5.28597 -4.3063,5.51502 7.05009,-1.11804 -3.78002,5.08037 5.45244,-4.65449 2.28286,1.16707 7.40888,-3.81218 -1.27615,2.66813 6.9213,-2.66324 -12.73394,12.09604 7.7979,-5.89809 0.20198,2.392 2.89747,-1.16249 9.54871,-6.65182 1.69085,-0.0312 l -6.9803,5.4135 c 7.04032,-5.89373 -0.005,-0.41129 -2.43153,0.24969 0.69266,-1.31956 3.08429,-6.26529 -2.89194,-0.18612 6.95143,-7.44643 -5.58101,3.02276 0.14138,-2.74197 -3.30592,0.67017 -3.80232,0.60331 -6.41126,1.83234 -13.26637,3.61644 4.43525,-4.32517 -7.62224,1.53308 9.84781,-9.06709 -6.86161,5.13364 -1.37856,-2.39152 -12.504187,7.24627 18.26129,-11.74313 -7.3232,3.21735 -0.17725,0.10365 0.056,-0.40682 0.084,-0.61024 1.2218,-1.05789 2.44359,-2.11579 3.66537,-3.17369 -4.218454,2.0078 -2.38201,-0.23094 -5.8186,1.7647 -1.179403,0.68525 -3.591784,2.69243 -4.310529,0.97271 -8.752344,3.30061 4.78438,-3.4391 -3.914934,0.0962 -3.841322,1.40114 -3.057385,0.34571 -1.534323,-2.46735 -1.433957,0.5242 -5.48745,2.14229 -6.391713,1.65947 -0.622406,0.25545 -5.931894,-1.06613 -5.904602,0.49504 -9.111405,1.70747 9.409478,-7.16501 -6.161081,1.1968 5.789051,-6.0019 -15.353388,9.88545 1.767618,-3.82407 -10.203054,6.6024 -3.475214,1.44566 -1.110957,-1.94667 -9.795843,6.47021 -5.821438,2.71142 -12.149363,6.15825 -3.710316,1.82054 0.407728,-2.56617 0.486498,-2.85536 -0.387148,0.24469 -14.266677,6.93785 -3.05028,-0.2568 -0.472804,0.0631 -1.701413,0.5732 -1.418415,0.18923 6.283071,-8.52489 -9.080195,7.35672 -0.756088,-1.14944 -12.491327,7.79304 1.687376,-2.15323 -8.377725,3.532 0.564872,-0.95445 1.04236,-1.96634 1.694616,-2.86336 0.570766,-0.78493 -12.085856,-0.70052 -2.693997,1.10433 -1.93489,0.69248 -3.911262,1.28969 -5.780733,2.14315 9.448801,-8.33038 -14.311602,9.4509 0.867987,-2.80239 -18.78965,11.77436 6.905109,-5.20718 -9.408966,4.08949 3.873378,-4.67996 1.578719,-3.47276 -3.477853,0.0494 1.350439,-1.1083 5.788084,-3.51371 4.051317,-3.3249 -3.394968,0.36909 -9.941066,8.43121 -0.883312,-0.0485 0.398648,-0.3732 -1.977403,0.89477 -1.533233,0.57709 z"
       inkscape:connector-curvature="0" />
    <path
       style="color:#000000;display:inline;overflow:visible;visibility:visible;opacity:1;fill:#000000;fill-opacity:1;fill-rule:nonzero;stroke:none;stroke-width:0.00101255;stroke-linecap:butt;stroke-linejoin:miter;stroke-miterlimit:4;stroke-dasharray:none;stroke-dashoffset:0;stroke-opacity:1;marker:none;marker-start:none;marker-mid:none;marker-end:none"
       id="path3087"
       d="m 30.697421,238.37788 c 2.568696,-2.43435 5.615323,-2.77848 4.778465,-1.76942 3.04805,1.49532 10.76976,-6.27388 8.003771,1.58104 4.927963,0.63384 8.916258,-5.73468 13.740691,-5.02289 1.396182,0.20599 -3.07051,3.34827 -1.752924,3.85397 0.757381,0.29068 9.837814,-0.98456 11.854346,-1.81027 3.71378,-1.91497 10.982873,-0.92752 8.795385,3.23745 19.528061,-10.10044 0.391813,2.36138 15.310392,-3.31727 5.033041,-2.572 4.422456,0.6626 8.989463,1.60629 5.98016,1.36358 6.84829,-1.94031 13.13863,-3.96752 0.68707,-0.22142 -1.16876,1.35838 -0.83466,1.99827 0.29065,0.55668 1.25595,0.007 1.88392,0.0113 3.71396,1.13138 9.01482,-3.54525 9.79823,1.13012 8.26475,-5.12662 4.18953,-0.77563 11.30133,-3.95098 -9.48561,5.94181 1.06014,2.64031 1.10879,2.63724 l -5.36212,3.89504 c -1.4182,0.41004 -5.96309,2.19763 -3.29025,-1.03545 -3.72264,2.14698 -5.61184,1.94656 -8.41491,1.89305 -5.84127,0.9418 -8.865,-1.88314 -16.56345,3.83523 4.08268,-5.47431 -0.80181,-4.98642 -7.065164,-3.32244 -4.348014,-2.38793 -9.713533,1.72256 -14.309726,2.25911 2.801487,-4.14736 -5.374249,-3.13817 -9.24448,-1.08987 1.634873,-4.92917 -11.539617,2.27691 -12.778302,-0.34369 -6.53678,0.21619 -12.250899,1.24391 -16.25086,-2.53618 -8.54358,2.82964 -7.796036,-0.51335 -15.604195,3.94098 10.437603,-8.98553 -4.948203,2.86745 0.615814,-2.14975 z"
       inkscape:connector-curvature="0" />
    <path
       style="color:#000000;display:inline;overflow:visible;visibility:visible;opacity:1;fill:#000000;fill-opacity:1;fill-rule:nonzero;stroke:none;stroke-width:0.00101255;stroke-linecap:butt;stroke-linejoin:miter;stroke-miterlimit:4;stroke-dasharray:none;stroke-dashoffset:0;stroke-opacity:1;marker:none;marker-start:none;marker-mid:none;marker-end:none"
       id="path3093"
       d="m 31.037525,244.89827 c 6.008214,-4.67992 0.0217,1.1865 3.447136,1.3911 5.872047,0.35075 5.057707,-3.67587 4.562038,2.56299 7.939541,-0.41768 16.811876,-2.77713 24.745965,-2.45336 2.166544,0.0884 3.845465,2.46103 6.013728,2.48005 23.439819,0.20561 5.586809,-5.79159 21.162943,0.78131 4.951789,-0.66754 9.868695,-2.31703 14.855375,-2.0026 2.70173,0.17035 4.67002,3.26189 7.37336,3.4042 9.39766,0.49472 18.52723,-5.96372 27.84608,-4.65226 1.61536,0.22734 1.22335,3.02454 1.83502,4.5368 l 3.71182,-2.70521 c -21.47614,6.17305 -13.75728,-1.31955 -29.65781,0.10807 -11.21255,1.00671 -21.641363,6.93484 -33.138314,6.51658 -10.51469,-8.49903 -13.77254,-3.83589 -26.672969,-3.65125 -7.022914,0.10054 -13.38258,-5.89404 -21.011155,-0.28344 -5.850105,-3.21397 -18.785163,2.81337 -10.904159,-1.79655 z"
       inkscape:connector-curvature="0" />
    <path
       style="color:#000000;display:inline;overflow:visible;visibility:visible;opacity:1;fill:#000000;fill-opacity:1;fill-rule:nonzero;stroke:none;stroke-width:0.00101255;stroke-linecap:butt;stroke-linejoin:miter;stroke-miterlimit:4;stroke-dasharray:none;stroke-dashoffset:0;stroke-opacity:1;marker:none;marker-start:none;marker-mid:none;marker-end:none"
       id="path3097"
       d="m 193.91913,225.78866 c -4.43045,4.92299 15.17131,-13.55055 2.71795,-0.95329 3.18554,-0.25429 -4.8475,5.0218 3.94802,-0.92888 -5.06963,4.06919 3.47523,-0.47112 3.54202,-0.49777 -2.38137,3.09192 -0.78762,1.08657 2.79047,-0.73598 0.70526,-0.35924 -1.84173,0.98917 -1.67229,1.8765 0.15093,0.79036 1.20924,-0.75679 1.81385,-1.13519 5.98138,-3.75391 -5.18056,4.36961 -4.16269,4.79516 0.94135,0.39356 7.3158,-6.45921 3.64441,-1.29109 -0.099,0.75324 12.22791,-8.15622 10.98054,-6.53245 -3.37827,4.39771 -14.57828,12.34968 -3.22419,3.98468 5.26249,-3.65172 1.84152,0.95591 1.45177,1.51846 1.25596,-0.0938 8.96301,-5.90992 1.45133,1.58741 4.98064,-3.43245 6.33755,-3.45215 3.33743,-0.21234 5.00426,-2.59514 9.88379,-8.37998 4.59673,-1.44902 3.76086,-1.24964 7.7116,-7.8285 -0.91777,2.09167 -1.80686,2.07713 4.43568,-2.83334 6.55828,-4.43698 -2.27126,5.15491 12.93008,-9.76081 1.04973,1.64545 1.93801,-0.72187 0.46581,0.89013 2.84649,0.0435 -0.83136,1.34358 5.84559,-4.80399 4.66407,-3.20021 -1.14705,1.55701 -2.71317,2.59805 -4.06975,3.89707 -0.99622,1.0008 -4.14675,3.71787 -2.98868,3.0024 4.70394,-2.90619 9.17475,-8.15896 4.92567,-3.36513 10.85524,-8.34599 -4.07235,4.277 4.81287,-1.63764 0.48247,-0.26995 1.81403,-1.26928 1.44743,-0.80986 -10.13174,12.69655 4.28853,-3.04482 -0.88863,2.78768 11.36331,-6.78988 -6.70966,4.37113 6.40951,-2.98673 4.60341,-3.12333 -3.07534,2.34353 -2.08875,2.62022 6.03926,1.6937 -2.48269,2.60956 1.745,0.21508 4.07253,-2.79526 2.52206,-0.67697 4.11609,-1.016 10.94713,-8.39194 -3.10648,3.78601 3.43275,-0.27322 -2.46398,4.70415 7.81153,-6.64776 1.64971,1.70315 0.64117,0.4993 6.66836,-3.5676 5.7117,-2.26122 10.3002,-6.74168 -8.74549,6.78428 0.84913,1.78388 4.95731,-1.66859 -4.78439,4.70272 2.6227,0.2458 1.52063,0.86209 4.73222,-1.71236 7.84791,-3.86091 -13.23454,13.05632 7.77234,-4.65198 -0.0261,3.47351 -7.67988,4.82967 5.84905,-4.7233 4.91415,-2.86502 -1.046,2.07912 -3.56019,2.60709 -4.77135,4.55625 -3.45335,5.55762 8.9352,-8.69459 1.87883,-0.72503 8.06964,-4.32336 -0.0535,1.44241 7.33725,-3.02823 -1.85543,2.32106 -0.83488,3.01869 1.16435,1.62268 1.60984,2.03334 9.22463,-8.05243 1.0072,1.66332 -0.52396,1.45723 4.90727,-2.90041 7.16799,-3.63553 -1.40775,3.08727 -7.5645,5.90314 4.7857,-1.59272 l -8.56057,7.37122 c 2.48307,-3.19107 -3.13058,1.34902 -3.97591,0.89545 -7.71576,5.37674 1.40975,-1.82904 0.24966,-1.49221 -1.62411,0.47159 -5.04376,4.72028 -4.37808,2.90234 0.20233,-0.55253 0.70473,-0.86808 1.05709,-1.30212 -0.67656,0.39985 -5.80329,2.1966 0.62668,-3.07019 -4.95205,3.56042 -10.37098,6.77805 -2.5542,-0.42591 -2.60169,1.70246 -17.56618,11.45276 -9.47843,4.87193 3.55002,-4.10707 1.12765,-2.06188 -0.88675,-1.94343 0.96725,-5.02617 -6.60288,4.7021 -3.4452,-0.48443 4.48493,-6.09156 -7.7496,5.73073 -2.90559,-0.39479 -4.63013,2.86639 0.45639,-0.059 0.36669,-1.18421 -0.20869,-2.61767 -0.52277,1.36126 -5.63897,4.06002 -0.4138,0.21827 1.68943,-1.32467 0.65949,-1.40798 5.45801,-7.95881 -14.67779,12.26802 0.55585,-2.99368 -1.49677,1.14527 -3.38544,5.09222 -4.49031,3.4358 -1.09997,-1.64908 2.90278,-2.46215 4.11958,-3.9916 0.004,-0.005 -13.49734,12.04453 -4.5279,2.11691 -9.66288,6.61453 13.09875,-11.35812 -5.55215,1.65713 6.3112,-6.82813 -4.31916,2.50898 -4.96122,1.58933 1.48682,-1.81038 6.60118,-6.1368 4.60066,-5.26433 -20.64856,9.00528 3.59044,1.48583 -4.83054,2.93404 -0.20405,0.0368 -4.07,1.93294 -2.67368,-0.23709 -1.05098,0.49157 -7.61148,2.43701 -0.43412,-2.1585 -2.74105,2.0538 -8.61675,5.19012 -0.6774,-1.87568 -18.77902,13.78375 3.13202,-2.73653 -8.71698,4.99934 -0.74787,0.33152 -1.61405,0.0708 -2.37722,0.34906 -0.86565,0.31561 -2.99308,2.37356 -2.34835,1.61969 1.51529,-1.77182 3.33028,-3.14324 4.99541,-4.71486 -3.56319,2.46257 -5.28589,2.69927 -6.62357,3.20878 4.7597,-5.50163 0.74919,-1.26885 -2.77575,-0.15924 0.72309,-0.75359 3.13082,-2.32149 2.16928,-2.26081 -1.766,0.11145 -6.14419,4.8247 -5.30382,2.44833 4.8542,-5.37135 -0.10128,-0.37688 -0.30067,-1.38084 -0.18197,-0.91619 4.40244,-3.55206 -0.499,-0.43968 -5.85034,2.75418 3.09711,-3.33187 -3.00657,0.85783 -0.9206,0.63193 -3.49442,2.81921 -2.75164,1.91653 1.60407,-1.94945 3.58556,-3.40584 5.37834,-5.10876 -12.53801,6.4044 3.69334,-3.32211 -8.1554,4.18584 3.75227,-5.76862 -3.74629,2.50918 -1.30569,-1.66416 -0.98909,-0.26781 -10.27226,5.56415 -3.43229,-1.17454 3.38438,-5.07597 -7.98489,5.36495 -2.6506,-0.75705 -5.53198,3.86397 0.22304,-1.64973 -6.03913,2.6701 5.12693,-5.24066 2.42984,-2.57936 -0.51113,-2.11205 -0.29985,0.17238 -7.22967,4.92886 -4.40559,1.32288 -2.19359,0.9781 -8.53125,5.69764 -0.75988,-0.73273 z"
       inkscape:connector-curvature="0" />
    <path
       style="color:#000000;display:inline;overflow:visible;visibility:visible;opacity:1;fill:#000000;fill-opacity:1;fill-rule:nonzero;stroke:none;stroke-width:0.00101255;stroke-linecap:butt;stroke-linejoin:miter;stroke-miterlimit:4;stroke-dasharray:none;stroke-dashoffset:0;stroke-opacity:1;marker:none;marker-start:none;marker-mid:none;marker-end:none"
       id="path3103"
       d="m 191.24226,235.78272 c 6.90725,-4.77639 -7.20268,6.97275 6.28168,-1.27955 -1.01541,1.3688 -4.43508,3.32369 -3.04626,4.10639 2.92248,1.647 5.71578,-4.50199 8.95158,-4.45312 5.63736,0.0851 -17.50034,13.55772 5.05476,0.98599 1.72616,-0.76047 3.34371,-2.09403 5.17846,-2.28137 1.4167,-0.14466 2.48731,2.11021 3.90758,2.02812 3.56599,-0.20612 6.97893,-3.19349 10.50089,-2.5001 0.81864,0.16117 0.26869,1.94109 0.40303,2.91164 8.22291,2.86883 16.33411,-1.25385 24.72602,-2.67735 -4.88911,10.38277 5.55324,2.58631 9.64416,1.11638 2.54022,-0.17283 3.66901,0.79303 6.58676,0.29488 2.41486,4.46896 5.4248,-3.6284 8.82922,-0.18401 17.38041,-8.17057 -4.91826,6.46157 4.95161,1.48794 1.48199,-0.20391 6.52126,-3.06833 6.1943,-2.4163 -0.63375,1.26383 -3.75451,3.48229 -2.53212,3.23216 3.33628,-0.68273 9.13456,-7.99436 2.86348,-0.66125 25.8444,-15.94666 -15.65356,7.96434 7.54544,-2.99245 0.90573,-0.61166 1.81144,-1.22334 2.71715,-1.83501 l -8.33262,7.17492 c -0.55933,0.31338 -1.11864,0.62676 -1.67796,0.94016 4.73801,-5.54816 -1.5915,2.14839 -3.22529,1.70246 -10.01064,-2.73231 10.20388,-5.48726 1.85788,-4.02977 -7.34642,3.31397 -0.3193,-1.92032 -7.88634,2.86082 -1.4789,0.93443 -3.77494,4.6924 -4.41283,2.85565 -0.67585,-1.94604 2.61328,-2.84996 3.91992,-4.27495 -14.15995,7.88749 9.13302,-11.10191 -8.79466,1.8575 5.16475,-8.7644 2.75204,-0.791 -3.91153,-0.18895 -1.65305,0.14935 3.47723,-2.32789 3.40985,-4.29109 -0.11791,-3.43617 -8.71708,8.74086 -7.88477,4.3723 1.94982,-6.43843 0.64363,0.59757 -4.2335,0.30616 -2.09413,-0.12512 19.29307,-18.33045 -6.39159,2.97957 1.78762,-1.87151 5.31965,-2.78817 5.36286,-5.61456 0.0371,-2.42232 -3.29013,3.47307 -5.33193,3.59081 -1.25708,0.0725 2.46545,-4.6655 1.26536,-4.21608 -7.48319,2.80235 -6.50472,7.01509 -6.99301,1.49527 -3.46147,-0.40393 -6.47147,-1.24808 -9.97269,-0.20773 -4.95973,1.47372 -9.61653,7.73824 -14.49866,5.93702 -1.54834,-0.57125 1.45432,-3.43567 2.18148,-5.15351 -2.83501,0.42731 -9.66838,-0.50835 -11.12948,-0.22561 -2.51064,0.48584 -5.7627,5.77726 -7.12751,3.23297 -2.38677,-4.4494 14.7627,-11.59602 -0.6745,-4.09109 -2.06608,-5.79823 -21.24587,13.03037 -10.74868,-0.8033 -13.66261,8.97009 -3.59672,0.62189 -6.42016,1.39879 z"
       inkscape:connector-curvature="0" />
    <path
       style="color:#000000;display:inline;overflow:visible;visibility:visible;opacity:1;fill:#000000;fill-opacity:1;fill-rule:nonzero;stroke:none;stroke-width:0.00101255;stroke-linecap:butt;stroke-linejoin:miter;stroke-miterlimit:4;stroke-dasharray:none;stroke-dashoffset:0;stroke-opacity:1;marker:none;marker-start:none;marker-mid:none;marker-end:none"
       id="path3109"
       d="m 188.68142,245.72584 c 0.90694,-0.67585 3.47664,-3.66688 4.61054,0.95373 13.53836,-3.73124 27.37224,-0.73541 41.22447,-2.41646 7.94666,11.94138 -5.1904,-5.11003 14.85398,0.31713 8.76409,2.37294 -9.96943,10.65484 2.85728,9.41626 12.50516,-4.55217 6.75427,-3.48308 17.09815,-4.29291 2.01574,12.80441 15.62654,-7.81968 28.43584,1.55604 l -1.55821,1.39718 c -2.59803,0.35312 -4.79673,1.35269 -7.16633,-0.64739 -0.80173,-0.67671 -0.80671,-2.97224 -1.77263,-2.85919 -7.63921,0.89404 -13.91673,8.15424 -21.97523,4.14166 -2.78549,-0.92794 -5.27683,-3.07601 -8.11269,-3.72926 -10.8571,-2.50102 -21.17918,10.4765 -31.65442,2.71816 -2.70143,0.0633 -5.41882,-0.17859 -8.10431,0.18992 -3.52308,0.48344 -7.87609,5.36022 -10.46212,2.35783 -2.17376,-2.52376 5.98479,-7.27545 3.9274,-9.94467 -2.49023,-3.23081 -17.72351,7.66014 -22.14016,5.7759 -2.44017,-2.37941 2.74575,-6.57921 -3.4923,-1.8469 z"
       inkscape:connector-curvature="0" />
    <path
       style="color:#000000;display:inline;overflow:visible;visibility:visible;opacity:1;fill:#000000;fill-opacity:1;fill-rule:nonzero;stroke:none;stroke-width:0.00101255;stroke-linecap:butt;stroke-linejoin:miter;stroke-miterlimit:4;stroke-dasharray:none;stroke-dashoffset:0;stroke-opacity:1;marker:none;marker-start:none;marker-mid:none;marker-end:none"
       id="path3175"
       d="m 111.96172,9.1712601 c 0.83532,0.031739 1.67134,0.050369 2.507,0.073643 5.62137,0.2059922 11.24709,0.2460792 16.87154,0.2884902 7.83627,0.03861 15.67258,-0.02359 23.50876,-0.05774 5.46305,-0.1377256 10.92275,0.05524 16.38261,0.21499 3.51864,0.112898 7.03905,0.100588 10.55882,0.08289 1.57082,-0.02186 3.14173,-0.03075 4.71263,-0.04331 1.36178,0.002 2.72363,0.0059 4.08547,0.0062 1.35417,0.0067 2.70836,-0.0045 4.06251,-0.01165 0.94924,0.118699 1.88641,-0.09053 2.78633,-0.190653 l -5.90983,4.4975277 c -0.9569,0.02997 -1.91556,0.08953 -2.87535,0.05155 -1.34363,-0.0072 -2.68729,-0.01842 -4.03094,-0.01105 -1.36948,0.0013 -2.73895,0.0057 -4.10835,0.01104 -1.52645,-0.01147 -3.05309,-0.0147 -4.579,-0.06218 -3.42654,-0.08871 -6.85239,-0.200352 -10.27844,-0.306315 -5.36457,-0.187985 -10.72733,-0.447231 -16.09736,-0.394927 -7.7832,-0.03433 -15.56653,-0.09666 -23.34982,-0.05774 -5.88916,0.04351 -11.77928,0.0892 -17.66569,0.288489 -0.90323,0.02364 -1.80676,0.04226 -2.70971,0.07364 z"
       inkscape:connector-curvature="0" />
  </g>
</svg>
